# Blender v2.79 (sub 0) OBJ File: 'table_walls_precombine.blend'
# www.blender.org
mtllib table_walls_precombine.mtl
o Table_Plane
v -2.500000 0.000000 1.250000
v -2.500000 0.000000 -1.250000
v 2.500000 0.000000 -1.250000
v 2.500000 0.000000 1.250000
v 2.500000 2.133558 1.250000
v -2.500000 2.133558 1.250000
v -2.500000 2.133558 -1.250000
v 2.500000 2.133558 -1.250000
v 5.000000 2.133558 2.500000
v -5.000000 2.133558 2.500000
v -5.000000 2.133558 -2.500000
v 5.000000 2.133558 -2.500000
v 5.000000 2.937500 2.500000
v -5.000000 2.937500 2.500000
v -5.000000 2.937500 -2.500000
v 5.000000 2.937500 -2.500000
v 4.401624 2.937500 2.200000
v 0.158130 2.937500 2.200000
v 0.155901 2.937500 2.204169
v 0.132583 2.937500 2.232582
v 0.104170 2.937500 2.255900
v 0.071754 2.937500 2.273227
v 0.036580 2.937500 2.283897
v 0.000001 2.937500 2.287500
v -0.036579 2.937500 2.283897
v -0.071753 2.937500 2.273227
v -0.104169 2.937500 2.255900
v -0.132582 2.937500 2.232582
v -0.155900 2.937500 2.204169
v -0.158129 2.937500 2.200000
v -4.401624 2.937500 2.200000
v -4.467419 2.937500 2.232583
v -4.467419 2.937500 2.232584
v -4.495831 2.937500 2.255900
v -4.528246 2.937500 2.273228
v -4.563420 2.937500 2.283897
v -4.600000 2.937500 2.287500
v -4.636580 2.937500 2.283897
v -4.671753 2.937500 2.273228
v -4.704169 2.937500 2.255900
v -4.732582 2.937500 2.232583
v 4.732582 2.937500 2.232583
v 4.704170 2.937500 2.255900
v 4.671753 2.937500 2.273227
v 4.636580 2.937500 2.283897
v 4.600000 2.937500 2.287499
v 4.563421 2.937500 2.283897
v 4.528247 2.937500 2.273227
v 4.495831 2.937500 2.255900
v 4.467420 2.937500 2.232584
v -4.699998 2.937500 1.901619
v -4.699998 2.937500 -1.901621
v -4.732584 2.937500 -1.967419
v -4.732584 2.937500 -1.967419
v -4.755900 2.937500 -1.995831
v -4.773227 2.937500 -2.028246
v -4.783898 2.937500 -2.063421
v -4.787500 2.937500 -2.100001
v -4.783898 2.937500 -2.136580
v -4.773227 2.937500 -2.171753
v -4.755900 2.937500 -2.204170
v -4.732583 2.937500 -2.232583
v -4.732582 2.937500 -2.232583
v -4.732583 2.937500 2.232583
v -4.755900 2.937500 2.204169
v -4.773228 2.937500 2.171753
v -4.783897 2.937500 2.136580
v -4.787500 2.937500 2.100000
v -4.783898 2.937500 2.063420
v -4.773228 2.937500 2.028247
v -4.755901 2.937500 1.995831
v -4.732584 2.937500 1.967419
v -4.732584 2.937500 1.967419
v -4.401623 2.937500 -2.200000
v -0.158129 2.937500 -2.200000
v -0.155900 2.937500 -2.204169
v -0.132582 2.937500 -2.232582
v -0.104169 2.937500 -2.255900
v -0.071753 2.937500 -2.273227
v -0.036579 2.937500 -2.283897
v 0.000001 2.937500 -2.287500
v 0.036580 2.937500 -2.283897
v 0.071754 2.937500 -2.273227
v 0.104170 2.937500 -2.255900
v 0.132583 2.937500 -2.232583
v 0.155901 2.937500 -2.204169
v 0.158130 2.937500 -2.200000
v 4.401624 2.937500 -2.200000
v 4.467420 2.937500 -2.232584
v 4.495831 2.937500 -2.255900
v 4.528247 2.937500 -2.273227
v 4.563421 2.937500 -2.283897
v 4.600000 2.937500 -2.287500
v 4.636580 2.937500 -2.283897
v 4.671753 2.937500 -2.273227
v 4.704170 2.937500 -2.255900
v 4.732582 2.937500 -2.232583
v -4.704169 2.937500 -2.255901
v -4.671753 2.937500 -2.273228
v -4.636580 2.937500 -2.283898
v -4.600000 2.937500 -2.287501
v -4.563421 2.937500 -2.283898
v -4.528246 2.937500 -2.273227
v -4.495830 2.937500 -2.255901
v -4.467419 2.937500 -2.232584
v 4.699998 2.937500 -1.901619
v 4.699998 2.937500 1.901619
v 4.732584 2.937500 1.967418
v 4.732584 2.937500 1.967419
v 4.755901 2.937500 1.995830
v 4.773228 2.937500 2.028246
v 4.783898 2.937500 2.063420
v 4.787500 2.937500 2.099999
v 4.783897 2.937500 2.136579
v 4.773228 2.937500 2.171752
v 4.755901 2.937500 2.204169
v 4.732583 2.937500 2.232582
v 4.732583 2.937500 -2.232583
v 4.755901 2.937500 -2.204169
v 4.773228 2.937500 -2.171753
v 4.783897 2.937500 -2.136579
v 4.787500 2.937500 -2.100000
v 4.783897 2.937500 -2.063420
v 4.773228 2.937500 -2.028246
v 4.755901 2.937500 -1.995831
v 4.732584 2.937500 -1.967419
v 4.732584 2.937500 -1.967419
v 4.467420 2.750000 2.232584
v 3.997773 2.937500 1.999999
v 0.221260 2.937500 1.999999
v 0.187501 2.937500 2.100002
v 0.187501 2.937500 2.100002
v 0.183898 2.937500 2.136579
v 0.173228 2.937500 2.171753
v -0.221259 2.937500 1.999999
v -3.997772 2.937500 1.999999
v -0.173227 2.937500 2.171753
v -0.183897 2.937500 2.136579
v -0.187499 2.937500 2.100002
v -4.467419 2.750000 2.232583
v -4.467419 2.229636 2.232584
v -4.495831 2.229636 2.255900
v -4.528246 2.229636 2.273228
v -4.563420 2.229636 2.283897
v -4.600000 2.229636 2.287500
v -4.636580 2.229636 2.283897
v -4.671753 2.229636 2.273228
v -4.704169 2.229636 2.255900
v 4.704170 2.229636 2.255900
v 4.671753 2.229636 2.273227
v 4.636580 2.229636 2.283897
v 4.600000 2.229636 2.287499
v 4.563421 2.229636 2.283897
v 4.528247 2.229636 2.273227
v 4.495831 2.229636 2.255900
v 4.467420 2.229636 2.232584
v -4.732584 2.750000 1.967419
v -4.499999 2.937500 1.497769
v -4.499999 2.937500 -1.497770
v -4.732584 2.750000 -1.967419
v -4.732584 2.750000 -1.967419
v -4.755900 2.229636 -1.995831
v -4.773227 2.229636 -2.028246
v -4.783898 2.229636 -2.063421
v -4.787500 2.229636 -2.100001
v -4.783898 2.229636 -2.136580
v -4.773227 2.229636 -2.171753
v -4.755900 2.229636 -2.204170
v -4.732583 2.229636 -2.232583
v -4.732583 2.229636 2.232583
v -4.755900 2.229636 2.204169
v -4.773228 2.229636 2.171753
v -4.783897 2.229636 2.136580
v -4.787500 2.229636 2.100000
v -4.783898 2.229636 2.063420
v -4.773228 2.229636 2.028247
v -4.755901 2.229636 1.995831
v -4.732584 2.750000 1.967419
v -4.467419 2.750000 -2.232584
v -3.997771 2.937500 -1.999999
v -0.221259 2.937500 -1.999999
v -0.187499 2.937500 -2.100002
v -0.187499 2.937500 -2.100002
v -0.183897 2.937500 -2.136579
v -0.173227 2.937500 -2.171753
v 0.221260 2.937500 -1.999999
v 3.997773 2.937500 -1.999999
v 0.173228 2.937500 -2.171753
v 0.183898 2.937500 -2.136580
v 0.187500 2.937500 -2.100002
v 0.187501 2.937500 -2.100002
v 4.467420 2.750000 -2.232584
v 4.467420 2.229636 -2.232584
v 4.495831 2.229636 -2.255900
v 4.528247 2.229636 -2.273227
v 4.563421 2.229636 -2.283897
v 4.600000 2.229636 -2.287500
v 4.636580 2.229636 -2.283897
v 4.671753 2.229636 -2.273227
v 4.704170 2.229636 -2.255900
v -4.704169 2.229636 -2.255901
v -4.671753 2.229636 -2.273228
v -4.636580 2.229636 -2.283898
v -4.600000 2.229636 -2.287501
v -4.563421 2.229636 -2.283898
v -4.528246 2.229636 -2.273227
v -4.495830 2.229636 -2.255901
v -4.467419 2.229636 -2.232584
v 4.732584 2.750000 -1.967419
v 4.499999 2.937500 -1.497769
v 4.499999 2.937500 1.497768
v 4.732584 2.750000 1.967418
v 4.732584 2.750000 1.967419
v 4.755901 2.229636 1.995830
v 4.773228 2.229636 2.028246
v 4.783898 2.229636 2.063420
v 4.787500 2.229636 2.099999
v 4.783897 2.229636 2.136579
v 4.773228 2.229636 2.171752
v 4.755901 2.229636 2.204169
v 4.732583 2.229636 2.232582
v 4.732583 2.229636 -2.232583
v 4.755901 2.229636 -2.204169
v 4.773228 2.229636 -2.171753
v 4.783897 2.229636 -2.136579
v 4.787500 2.229636 -2.100000
v 4.783897 2.229636 -2.063420
v 4.773228 2.229636 -2.028246
v 4.755901 2.229636 -1.995831
v 4.732584 2.750000 -1.967419
v 4.179505 2.750000 2.089999
v 0.190878 2.750000 2.089999
v -0.190876 2.750000 2.089999
v -4.179504 2.750000 2.089999
v -4.467417 2.229636 1.967418
v -4.495831 2.229636 1.944100
v -4.528247 2.229636 1.926773
v -4.563421 2.229636 1.916103
v -4.600000 2.229636 1.912500
v -4.636580 2.229636 1.916102
v -4.671753 2.229636 1.926773
v -4.704169 2.229636 1.944100
v -4.732583 2.229636 1.967417
v -4.444100 2.229636 2.204169
v -4.426773 2.229636 2.171752
v -4.416102 2.229636 2.136580
v -4.412500 2.229636 2.100000
v -4.416103 2.229636 2.063421
v -4.426774 2.229636 2.028247
v -4.444100 2.229636 1.995830
v 4.467418 2.229636 1.967417
v 4.444100 2.229636 1.995830
v 4.426773 2.229636 2.028246
v 4.416103 2.229636 2.063420
v 4.412500 2.229636 2.099999
v 4.416103 2.229636 2.136579
v 4.426773 2.229636 2.171752
v 4.444100 2.229636 2.204169
v 4.732583 2.229636 1.967417
v 4.704170 2.229636 1.944099
v 4.671753 2.229636 1.926772
v 4.636580 2.229636 1.916102
v 4.600000 2.229636 1.912500
v 4.563421 2.229636 1.916102
v 4.528247 2.229636 1.926772
v 4.495831 2.229636 1.944099
v 4.444100 2.750000 2.204169
v -4.589997 2.750000 1.679499
v -4.589997 2.750000 -1.679501
v -4.467417 2.229636 -1.967418
v -4.444100 2.229636 -1.995831
v -4.426773 2.229636 -2.028247
v -4.416102 2.229636 -2.063420
v -4.412500 2.229636 -2.100000
v -4.416102 2.229636 -2.136580
v -4.426773 2.229636 -2.171753
v -4.444100 2.229636 -2.204170
v -4.732583 2.229636 -1.967418
v -4.704170 2.229636 -1.944100
v -4.671753 2.229636 -1.926774
v -4.636579 2.229636 -1.916103
v -4.600000 2.229636 -1.912500
v -4.563420 2.229636 -1.916103
v -4.528246 2.229636 -1.926773
v -4.495831 2.229636 -1.944100
v -3.359122 2.750000 1.683720
v -4.183720 2.750000 0.859122
v -4.732583 2.750000 1.967417
v -4.704169 2.750000 1.944100
v -4.671753 2.750000 1.926773
v -4.636580 2.750000 1.916102
v -4.600000 2.750000 1.912500
v -4.563421 2.750000 1.916103
v -4.528247 2.750000 1.926773
v -4.495831 2.750000 1.944100
v -4.467417 2.750000 1.967418
v -4.444100 2.750000 1.995830
v -4.426774 2.750000 2.028247
v -4.416103 2.750000 2.063421
v -4.412500 2.750000 2.100000
v -4.416102 2.750000 2.136580
v -4.426773 2.750000 2.171752
v -4.444100 2.750000 2.204169
v -4.179503 2.750000 -2.089999
v -0.190876 2.750000 -2.089999
v 0.190878 2.750000 -2.089999
v 4.179505 2.750000 -2.089999
v 4.444099 2.750000 -2.204169
v 4.444099 2.229636 -2.204169
v 4.467418 2.229636 -1.967417
v 4.495831 2.229636 -1.944099
v 4.528247 2.229636 -1.926772
v 4.563421 2.229636 -1.916103
v 4.600000 2.229636 -1.912500
v 4.636580 2.229636 -1.916102
v 4.671754 2.229636 -1.926772
v 4.704170 2.229636 -1.944100
v 4.732583 2.229636 -1.967417
v 4.426773 2.229636 -2.171752
v 4.416103 2.229636 -2.136579
v 4.412500 2.229636 -2.099999
v 4.416103 2.229636 -2.063420
v 4.426773 2.229636 -2.028246
v 4.444100 2.229636 -1.995830
v -4.444100 2.750000 -2.204170
v 4.589997 2.750000 -1.679499
v 4.589997 2.750000 1.679499
v 4.589997 2.750000 1.913485
v 4.600000 2.750000 1.912500
v 4.636580 2.750000 1.916102
v 4.671753 2.750000 1.926772
v 4.704170 2.750000 1.944099
v 4.732583 2.750000 1.967417
v 3.359123 2.750000 -1.683720
v 4.183720 2.750000 -0.859122
v 4.732583 2.750000 -1.967417
v 4.704170 2.750000 -1.944100
v 4.671754 2.750000 -1.926772
v 4.636580 2.750000 -1.916102
v 4.600000 2.750000 -1.912500
v 4.563421 2.750000 -1.916103
v 4.528247 2.750000 -1.926772
v 4.495831 2.750000 -1.944099
v 4.467418 2.750000 -1.967417
v 4.444100 2.750000 -1.995830
v 4.426773 2.750000 -2.028246
v 4.416103 2.750000 -2.063420
v 4.412500 2.750000 -2.099999
v 4.416103 2.750000 -2.136579
v 4.426773 2.750000 -2.171752
v 4.413486 2.750000 2.089999
v 4.426773 2.750000 2.171752
v 4.416103 2.750000 2.136579
v 4.412500 2.750000 2.099999
v -0.583078 2.750000 0.928212
v 0.583079 2.750000 0.928212
v 3.359123 2.750000 1.683719
v 4.183720 2.750000 0.859122
v 4.183720 2.750000 -0.859122
v 3.359123 2.750000 -1.683720
v 0.583080 2.750000 -0.928212
v -0.583078 2.750000 -0.928212
v -3.359122 2.750000 -1.683721
v -4.183720 2.750000 -0.859123
v -4.183720 2.750000 0.859122
v -3.359122 2.750000 1.683720
v 4.495831 2.750000 1.944099
v 4.467418 2.750000 1.967417
v 4.444100 2.750000 1.995830
v 4.426773 2.750000 2.028246
v 4.416103 2.750000 2.063420
v 4.563421 2.750000 1.916102
v 4.528247 2.750000 1.926772
v -4.183720 2.750000 -0.859123
v -3.359122 2.750000 -1.683721
v -4.426773 2.750000 -2.171753
v -4.416102 2.750000 -2.136580
v -4.412500 2.750000 -2.100000
v -4.416102 2.750000 -2.063420
v -4.426773 2.750000 -2.028247
v -4.444100 2.750000 -1.995831
v -4.467417 2.750000 -1.967418
v -4.495831 2.750000 -1.944100
v -4.528246 2.750000 -1.926773
v -4.563420 2.750000 -1.916103
v -4.600000 2.750000 -1.912500
v -4.636579 2.750000 -1.916103
v -4.671753 2.750000 -1.926774
v -4.704170 2.750000 -1.944100
v -4.732583 2.750000 -1.967418
v -0.186514 2.750000 2.089999
v -0.183897 2.750000 2.063420
v -0.173227 2.750000 2.028247
v -0.155900 2.750000 1.995830
v -0.132582 2.750000 1.967417
v -0.104169 2.750000 1.944099
v -0.071752 2.750000 1.926772
v -0.036578 2.750000 1.916103
v 0.000001 2.750000 1.912500
v 0.036580 2.750000 1.916103
v 0.071754 2.750000 1.926772
v 0.104170 2.750000 1.944100
v 0.132583 2.750000 1.967417
v 0.155901 2.750000 1.995831
v 0.173228 2.750000 2.028247
v 0.183898 2.750000 2.063421
v 0.186516 2.750000 2.089999
v 0.186516 2.750000 -2.089999
v 0.183898 2.750000 -2.063420
v 0.173228 2.750000 -2.028247
v 0.155901 2.750000 -1.995831
v 0.132583 2.750000 -1.967417
v 0.104170 2.750000 -1.944100
v 0.071754 2.750000 -1.926773
v 0.036580 2.750000 -1.916103
v 0.000001 2.750000 -1.912500
v -0.036578 2.750000 -1.916102
v -0.071752 2.750000 -1.926773
v -0.104169 2.750000 -1.944099
v -0.132582 2.750000 -1.967417
v -0.155900 2.750000 -1.995830
v -0.173227 2.750000 -2.028246
v -0.183897 2.750000 -2.063420
v -0.186514 2.750000 -2.089999
v 0.000001 2.229636 1.912500
v 0.036580 2.229636 1.916103
v 0.071754 2.229636 1.926772
v -0.036578 2.229636 1.916103
v -0.071752 2.229636 1.926772
v -0.104169 2.229636 1.944099
v -0.132582 2.229636 1.967417
v -0.155900 2.229636 1.995830
v -0.173227 2.229636 2.028247
v -0.183897 2.229636 2.063420
v -0.187499 2.229636 2.100002
v -0.183897 2.229636 2.136579
v -0.173227 2.229636 2.171753
v -0.155900 2.229636 2.204169
v -0.132582 2.229636 2.232582
v -0.104169 2.229636 2.255900
v -0.071753 2.229636 2.273227
v -0.036579 2.229636 2.283897
v 0.000001 2.229636 2.287500
v 0.036580 2.229636 2.283897
v 0.071754 2.229636 2.273227
v 0.104170 2.229636 2.255900
v 0.132583 2.229636 2.232582
v 0.155901 2.229636 2.204169
v 0.173228 2.229636 2.171753
v 0.183898 2.229636 2.136579
v 0.187501 2.229636 2.100000
v 0.183898 2.229636 2.063421
v 0.173228 2.229636 2.028247
v 0.155901 2.229636 1.995831
v 0.132583 2.229636 1.967417
v 0.104170 2.229636 1.944100
v 0.187501 2.750000 2.100000
v 0.187501 2.750000 2.100002
v -0.187499 2.750000 2.100002
v 0.187501 2.750000 2.100002
v 0.036580 2.229636 -1.916103
v 0.000001 2.229636 -1.912500
v -0.036578 2.229636 -1.916102
v 0.071754 2.229636 -1.926773
v 0.104170 2.229636 -1.944100
v 0.132583 2.229636 -1.967417
v 0.155901 2.229636 -1.995831
v 0.173228 2.229636 -2.028247
v 0.183898 2.229636 -2.063420
v 0.187501 2.229636 -2.100000
v 0.183898 2.229636 -2.136580
v 0.173228 2.229636 -2.171753
v 0.155901 2.229636 -2.204169
v 0.132583 2.229636 -2.232583
v 0.104170 2.229636 -2.255900
v 0.071754 2.229636 -2.273227
v 0.036580 2.229636 -2.283897
v 0.000001 2.229636 -2.287500
v -0.036579 2.229636 -2.283897
v -0.071753 2.229636 -2.273227
v -0.104169 2.229636 -2.255900
v -0.132582 2.229636 -2.232582
v -0.155900 2.229636 -2.204169
v -0.173227 2.229636 -2.171753
v -0.183897 2.229636 -2.136579
v -0.187499 2.229636 -2.100002
v -0.183897 2.229636 -2.063420
v -0.173227 2.229636 -2.028246
v -0.155900 2.229636 -1.995830
v -0.132582 2.229636 -1.967417
v -0.104169 2.229636 -1.944099
v -0.071752 2.229636 -1.926773
v -0.187499 2.750000 -2.100002
v 0.187501 2.750000 -2.100000
v 0.187500 2.750000 -2.100002
v 0.187501 2.750000 -2.100002
v -15.000000 0.000000 15.000000
v -15.000000 10.000000 15.000000
v -15.000000 0.000000 -15.000000
v -15.000000 10.000000 -15.000000
v 15.000000 0.000000 15.000000
v 15.000000 10.000000 15.000000
v 15.000000 0.000000 -15.000000
v 15.000000 10.000000 -15.000000
vt 0.335220 0.842137
vt 0.379234 0.787630
vt 0.379234 0.842137
vt 0.423747 0.838373
vt 0.467762 0.780245
vt 0.467762 0.838373
vt 0.519645 0.780253
vt 0.475684 0.838392
vt 0.475684 0.780245
vt 0.283688 0.845748
vt 0.327297 0.787860
vt 0.327297 0.845979
vt 0.275766 0.787641
vt 0.231846 0.845776
vt 0.231846 0.787630
vt 0.349804 0.696057
vt 0.415825 0.668804
vt 0.393818 0.696057
vt 0.415825 0.777818
vt 0.393818 0.750565
vt 0.327796 0.777818
vt 0.349804 0.750565
vt 0.327796 0.668804
vt 0.404843 0.896644
vt 0.387156 0.787630
vt 0.404843 0.787630
vt 0.441440 0.957066
vt 0.423747 0.848187
vt 0.441440 0.848184
vt 0.475684 0.848304
vt 0.493368 0.956222
vt 0.475684 0.956316
vt 0.467055 0.956966
vt 0.449362 0.848188
vt 0.467055 0.848184
vt 0.277027 0.771988
vt 0.314607 0.771277
vt 0.276777 0.772496
vt 0.319874 0.777818
vt 0.317972 0.769895
vt 0.318003 0.769097
vt 0.236284 0.674126
vt 0.275228 0.673748
vt 0.274943 0.674126
vt 0.233716 0.769097
vt 0.233748 0.769895
vt 0.231846 0.777818
vt 0.240668 0.766917
vt 0.274241 0.769895
vt 0.274335 0.770662
vt 0.311051 0.766917
vt 0.277385 0.770662
vt 0.277479 0.769895
vt 0.317110 0.904190
vt 0.317508 0.884899
vt 0.317508 0.904191
vt 0.412766 0.806929
vt 0.413090 0.787636
vt 0.413090 0.806918
vt 0.413422 0.787630
vt 0.413422 0.806913
vt 0.413749 0.787630
vt 0.413749 0.806912
vt 0.414060 0.787634
vt 0.414060 0.806916
vt 0.414341 0.787642
vt 0.414341 0.806925
vt 0.516873 0.940515
vt 0.501294 0.940126
vt 0.516872 0.940115
vt 0.412766 0.865149
vt 0.413090 0.845856
vt 0.413090 0.865139
vt 0.413422 0.845851
vt 0.413422 0.865133
vt 0.413749 0.845850
vt 0.413749 0.865133
vt 0.414060 0.845854
vt 0.414060 0.865137
vt 0.414341 0.845863
vt 0.414341 0.865146
vt 0.527568 0.878784
vt 0.527891 0.859491
vt 0.527891 0.878783
vt 0.528316 0.859490
vt 0.528316 0.873672
vt 0.315473 0.690655
vt 0.317233 0.764772
vt 0.315473 0.755967
vt 0.298959 0.875082
vt 0.299538 0.855790
vt 0.299538 0.875082
vt 0.300163 0.855790
vt 0.300163 0.875082
vt 0.300807 0.855790
vt 0.300807 0.875082
vt 0.301448 0.855790
vt 0.301448 0.875082
vt 0.302060 0.855791
vt 0.302060 0.875083
vt 0.302619 0.855791
vt 0.302619 0.875083
vt 0.303105 0.855792
vt 0.303105 0.875084
vt 0.516871 0.939588
vt 0.501292 0.938963
vt 0.516870 0.938953
vt 0.501291 0.938246
vt 0.516869 0.938235
vt 0.501291 0.937473
vt 0.516869 0.937462
vt 0.501290 0.936674
vt 0.516868 0.936664
vt 0.501290 0.935881
vt 0.516868 0.935871
vt 0.501290 0.935124
vt 0.516868 0.935113
vt 0.501291 0.934431
vt 0.516869 0.934420
vt 0.516869 0.933819
vt 0.512743 0.933821
vt 0.516869 0.933819
vt 0.311051 0.679705
vt 0.277479 0.676727
vt 0.277385 0.675961
vt 0.240668 0.679705
vt 0.274335 0.675961
vt 0.274241 0.676727
vt 0.261495 0.869783
vt 0.261495 0.855601
vt 0.261889 0.855602
vt 0.261889 0.874894
vt 0.262174 0.855603
vt 0.262174 0.874895
vt 0.270097 0.874892
vt 0.270407 0.855601
vt 0.270407 0.874886
vt 0.270729 0.855599
vt 0.270729 0.874884
vt 0.271051 0.855601
vt 0.271051 0.874886
vt 0.271360 0.855607
vt 0.271360 0.874892
vt 0.523529 0.767450
vt 0.507950 0.767058
vt 0.523528 0.767055
vt 0.303498 0.875085
vt 0.303784 0.855795
vt 0.303784 0.875086
vt 0.377181 0.871242
vt 0.377490 0.851950
vt 0.377490 0.871236
vt 0.377812 0.851948
vt 0.377812 0.871234
vt 0.378134 0.851950
vt 0.378134 0.871236
vt 0.378444 0.851956
vt 0.378444 0.871242
vt 0.335220 0.851948
vt 0.350798 0.852343
vt 0.335220 0.852343
vt 0.350799 0.852866
vt 0.339347 0.852866
vt 0.236247 0.755967
vt 0.234486 0.681850
vt 0.236247 0.690655
vt 0.523527 0.675071
vt 0.519401 0.675071
vt 0.523527 0.675071
vt 0.523527 0.674439
vt 0.507948 0.673727
vt 0.523526 0.673724
vt 0.507948 0.672955
vt 0.523526 0.672953
vt 0.507948 0.672157
vt 0.523526 0.672154
vt 0.507948 0.671362
vt 0.523526 0.671359
vt 0.507948 0.670602
vt 0.523526 0.670599
vt 0.507949 0.669905
vt 0.523527 0.669903
vt 0.507949 0.669299
vt 0.523527 0.669296
vt 0.523527 0.766532
vt 0.507949 0.765903
vt 0.523527 0.765901
vt 0.507948 0.765188
vt 0.523526 0.765185
vt 0.507948 0.764417
vt 0.523526 0.764414
vt 0.507948 0.763618
vt 0.523526 0.763615
vt 0.507948 0.762823
vt 0.523526 0.762821
vt 0.507948 0.762063
vt 0.523526 0.762060
vt 0.507949 0.761367
vt 0.523527 0.761364
vt 0.523527 0.760758
vt 0.519401 0.760758
vt 0.523527 0.760758
vt 0.528927 0.878780
vt 0.530987 0.873663
vt 0.243991 0.857318
vt 0.248165 0.898680
vt 0.243991 0.898108
vt 0.531456 0.709668
vt 0.535699 0.668804
vt 0.535626 0.711885
vt 0.335220 0.896124
vt 0.335283 0.895352
vt 0.338453 0.895926
vt 0.516871 0.939588
vt 0.377589 0.905154
vt 0.377889 0.905405
vt 0.376945 0.905114
vt 0.528829 0.859490
vt 0.528829 0.873672
vt 0.512745 0.927659
vt 0.516870 0.932410
vt 0.516854 0.858594
vt 0.512725 0.854579
vt 0.000000 0.000000
vt 0.000000 0.000000
vt 0.000000 0.000000
vt 0.360852 0.891668
vt 0.361152 0.891920
vt 0.360209 0.891629
vt 0.303105 0.875084
vt 0.536529 0.843365
vt 0.536179 0.843647
vt 0.527568 0.835158
vt 0.531456 0.727219
vt 0.535622 0.768720
vt 0.531456 0.768389
vt 0.231846 0.897090
vt 0.236069 0.855599
vt 0.236009 0.899080
vt 0.261010 0.869782
vt 0.398439 0.909643
vt 0.398564 0.908883
vt 0.401673 0.909840
vt 0.523527 0.766532
vt 0.350800 0.853497
vt 0.339348 0.853497
vt 0.519405 0.754565
vt 0.523528 0.759342
vt 0.523533 0.750655
vt 0.519405 0.681418
vt 0.523534 0.685423
vt 0.519401 0.675071
vt 0.523528 0.676521
vt 0.490288 0.768879
vt 0.494641 0.769770
vt 0.494946 0.770124
vt 0.523528 0.668804
vt 0.523527 0.669296
vt 0.536529 0.803743
vt 0.536179 0.804025
vt 0.527568 0.795536
vt 0.497515 0.764404
vt 0.498954 0.767100
vt 0.498335 0.766983
vt 0.475845 0.764450
vt 0.445594 0.764450
vt 0.444378 0.725198
vt 0.535699 0.715416
vt 0.531558 0.714620
vt 0.312448 0.899079
vt 0.312957 0.884897
vt 0.312957 0.899079
vt 0.312025 0.899080
vt 0.312448 0.884897
vt 0.311707 0.899081
vt 0.312025 0.884898
vt 0.300487 0.899077
vt 0.300797 0.884906
vt 0.300797 0.899083
vt 0.300165 0.899075
vt 0.300487 0.884900
vt 0.299843 0.899077
vt 0.300165 0.884898
vt 0.299533 0.899083
vt 0.299843 0.884900
vt 0.512743 0.933334
vt 0.501293 0.932988
vt 0.512744 0.932980
vt 0.512743 0.933821
vt 0.501292 0.933342
vt 0.316058 0.899079
vt 0.316621 0.884897
vt 0.316621 0.899079
vt 0.315444 0.899078
vt 0.316058 0.884897
vt 0.314803 0.899078
vt 0.315444 0.884896
vt 0.314158 0.899078
vt 0.314803 0.884896
vt 0.313535 0.899078
vt 0.314158 0.884896
vt 0.313535 0.884896
vt 0.532975 0.873673
vt 0.533368 0.859493
vt 0.533368 0.873674
vt 0.532489 0.873672
vt 0.532975 0.859492
vt 0.531930 0.873672
vt 0.532489 0.859491
vt 0.531318 0.873671
vt 0.531930 0.859490
vt 0.530033 0.873671
vt 0.530677 0.859489
vt 0.530677 0.873671
vt 0.529409 0.873671
vt 0.530033 0.859489
vt 0.529409 0.859489
vt 0.519402 0.675594
vt 0.507949 0.675074
vt 0.519401 0.675071
vt 0.519403 0.675989
vt 0.507950 0.675597
vt 0.537707 0.902775
vt 0.538017 0.888603
vt 0.538017 0.902780
vt 0.537385 0.902772
vt 0.537707 0.888597
vt 0.536753 0.902780
vt 0.537063 0.888597
vt 0.537063 0.902775
vt 0.533654 0.859494
vt 0.533654 0.873676
vt 0.367334 0.857979
vt 0.367684 0.858261
vt 0.358723 0.866468
vt 0.339347 0.858640
vt 0.350798 0.859133
vt 0.339346 0.859133
vt 0.339347 0.858034
vt 0.350798 0.858640
vt 0.339348 0.857337
vt 0.350799 0.858034
vt 0.339348 0.856577
vt 0.350800 0.857338
vt 0.339348 0.855783
vt 0.350800 0.856577
vt 0.339348 0.854984
vt 0.350800 0.855783
vt 0.339348 0.854212
vt 0.350800 0.854984
vt 0.350800 0.854212
vt 0.298020 0.869974
vt 0.298446 0.855791
vt 0.298446 0.869973
vt 0.297697 0.869975
vt 0.298020 0.855792
vt 0.414060 0.889139
vt 0.414341 0.874973
vt 0.414341 0.889148
vt 0.413749 0.889135
vt 0.414060 0.874964
vt 0.413422 0.889136
vt 0.413749 0.874960
vt 0.413090 0.889142
vt 0.413422 0.874961
vt 0.412766 0.889152
vt 0.413090 0.874967
vt 0.291611 0.903297
vt 0.291611 0.884898
vt 0.291611 0.884898
vt 0.501291 0.933829
vt 0.512743 0.933821
vt 0.317110 0.884898
vt 0.317110 0.899080
vt 0.236069 0.902219
vt 0.231930 0.901493
vt 0.260450 0.869781
vt 0.261010 0.855600
vt 0.256837 0.869782
vt 0.257350 0.855599
vt 0.257350 0.869781
vt 0.256411 0.869783
vt 0.256837 0.855600
vt 0.256088 0.869784
vt 0.256411 0.855601
vt 0.378475 0.895232
vt 0.378756 0.881066
vt 0.378756 0.895241
vt 0.378165 0.895228
vt 0.378475 0.881057
vt 0.377837 0.895229
vt 0.378165 0.881053
vt 0.377505 0.895234
vt 0.377837 0.881054
vt 0.377181 0.895244
vt 0.377505 0.881059
vt 0.519401 0.760758
vt 0.507950 0.760268
vt 0.519402 0.760266
vt 0.259838 0.869781
vt 0.260450 0.855600
vt 0.259198 0.869780
vt 0.259838 0.855599
vt 0.258553 0.869780
vt 0.259198 0.855599
vt 0.257929 0.869781
vt 0.258553 0.855599
vt 0.257929 0.855599
vt 0.495357 0.767543
vt 0.494946 0.767852
vt 0.490362 0.755461
vt 0.283688 0.903425
vt 0.283688 0.884898
vt 0.283688 0.884898
vt 0.507949 0.760760
vt 0.519401 0.760758
vt 0.339355 0.856125
vt 0.335223 0.853611
vt 0.339375 0.865413
vt 0.339351 0.882927
vt 0.339351 0.882927
vt 0.512741 0.872717
vt 0.512719 0.848214
vt 0.530852 0.873671
vt 0.537385 0.888595
vt 0.537297 0.902773
vt 0.298446 0.875083
vt 0.298446 0.869973
vt 0.494390 0.718841
vt 0.494454 0.719240
vt 0.477061 0.725198
vt 0.427048 0.718841
vt 0.426985 0.718443
vt 0.444378 0.712485
vt 0.528199 0.902772
vt 0.528521 0.888597
vt 0.528521 0.902775
vt 0.528831 0.888603
vt 0.528831 0.902780
vt 0.389586 0.913989
vt 0.389286 0.914349
vt 0.387754 0.913878
vt 0.527877 0.902775
vt 0.528199 0.888595
vt 0.256088 0.898891
vt 0.256407 0.884709
vt 0.256407 0.898890
vt 0.256829 0.884708
vt 0.256829 0.898889
vt 0.257339 0.884707
vt 0.257339 0.898889
vt 0.257916 0.884707
vt 0.257916 0.898888
vt 0.258539 0.884706
vt 0.258539 0.898888
vt 0.259008 0.898888
vt 0.259184 0.884706
vt 0.259184 0.898888
vt 0.259826 0.884707
vt 0.259826 0.903998
vt 0.260440 0.884707
vt 0.260440 0.903999
vt 0.261002 0.884708
vt 0.261002 0.904000
vt 0.260930 0.903999
vt 0.261492 0.884709
vt 0.261492 0.904000
vt 0.261889 0.884710
vt 0.261889 0.904001
vt 0.412766 0.836039
vt 0.413090 0.816746
vt 0.413090 0.836029
vt 0.413422 0.816741
vt 0.413422 0.836023
vt 0.413749 0.816740
vt 0.413749 0.836022
vt 0.414060 0.816744
vt 0.414060 0.836026
vt 0.414341 0.816753
vt 0.414341 0.836035
vt 0.311707 0.875085
vt 0.312030 0.855792
vt 0.312030 0.875084
vt 0.312456 0.855791
vt 0.312456 0.875083
vt 0.312968 0.855791
vt 0.312968 0.875082
vt 0.313548 0.855790
vt 0.313548 0.875082
vt 0.313043 0.875082
vt 0.314172 0.855790
vt 0.314172 0.875082
vt 0.314816 0.855790
vt 0.314816 0.869972
vt 0.314991 0.869972
vt 0.315457 0.855790
vt 0.315457 0.869972
vt 0.316069 0.855791
vt 0.316069 0.869972
vt 0.316628 0.855791
vt 0.316628 0.869973
vt 0.317114 0.855792
vt 0.317114 0.869974
vt 0.317507 0.855793
vt 0.317507 0.869975
vt 0.317793 0.855795
vt 0.317793 0.869976
vt 0.527568 0.902780
vt 0.527877 0.888597
vt 0.497691 0.720885
vt 0.497691 0.720885
vt 0.497515 0.720922
vt 0.325716 0.908897
vt 0.325716 0.914005
vt 0.325716 0.908897
vt 0.314994 0.869972
vt 0.314816 0.875082
vt 0.497515 0.716808
vt 0.497515 0.716761
vt 0.497691 0.716797
vt 0.245735 0.913602
vt 0.245558 0.908492
vt 0.245732 0.908492
vt 0.326372 0.899070
vt 0.326699 0.884895
vt 0.326699 0.899070
vt 0.327010 0.884899
vt 0.327010 0.899074
vt 0.349139 0.900161
vt 0.348869 0.900555
vt 0.347307 0.900272
vt 0.326040 0.899076
vt 0.326372 0.884895
vt 0.327291 0.884908
vt 0.327291 0.899082
vt 0.283688 0.869975
vt 0.284011 0.855792
vt 0.284011 0.869974
vt 0.284437 0.855791
vt 0.284437 0.869973
vt 0.284950 0.855791
vt 0.284950 0.869972
vt 0.285529 0.855790
vt 0.285529 0.869972
vt 0.286153 0.855790
vt 0.286153 0.869972
vt 0.286798 0.855790
vt 0.286622 0.869972
vt 0.286798 0.875082
vt 0.287439 0.855790
vt 0.287439 0.875082
vt 0.288051 0.855791
vt 0.288051 0.875082
vt 0.288538 0.875083
vt 0.288610 0.875083
vt 0.289096 0.855792
vt 0.289096 0.875084
vt 0.289489 0.855793
vt 0.289489 0.875085
vt 0.289775 0.855795
vt 0.289775 0.875086
vt 0.325716 0.875083
vt 0.326025 0.855792
vt 0.326025 0.875077
vt 0.326347 0.855790
vt 0.326347 0.875075
vt 0.326669 0.855792
vt 0.326669 0.875077
vt 0.326979 0.855798
vt 0.326979 0.875083
vt 0.275614 0.884706
vt 0.275295 0.903999
vt 0.275295 0.884707
vt 0.274873 0.904000
vt 0.274873 0.884708
vt 0.274363 0.904001
vt 0.274363 0.884709
vt 0.274289 0.884709
vt 0.273785 0.884709
vt 0.273162 0.904001
vt 0.273162 0.884710
vt 0.272517 0.904001
vt 0.272517 0.889820
vt 0.272517 0.889820
vt 0.272342 0.889820
vt 0.271876 0.904001
vt 0.271876 0.889819
vt 0.271262 0.904001
vt 0.271262 0.889819
vt 0.270699 0.904000
vt 0.270699 0.889818
vt 0.270210 0.903999
vt 0.270210 0.889817
vt 0.269812 0.903998
vt 0.269812 0.889816
vt 0.325716 0.899086
vt 0.326040 0.884901
vt 0.423923 0.716761
vt 0.423923 0.716808
vt 0.423747 0.716797
vt 0.286798 0.875082
vt 0.286624 0.869972
vt 0.286798 0.869972
vt 0.299533 0.908894
vt 0.299533 0.914002
vt 0.299533 0.908894
vt 0.423923 0.720922
vt 0.423747 0.720885
vt 0.423747 0.720885
vt 0.412944 0.898963
vt 0.412766 0.904073
vt 0.412767 0.898963
vt 0.996039 0.657596
vt 0.775969 0.004960
vt 0.996039 0.004906
vt 0.767975 0.995094
vt 0.547976 0.668051
vt 0.767975 0.668051
vt 0.547976 0.004946
vt 0.768046 0.658200
vt 0.547976 0.658240
vt 0.223923 0.992838
vt 0.003961 0.669965
vt 0.223923 0.668804
vt 0.540054 0.658992
vt 0.275969 0.004906
vt 0.540054 0.004906
vt 0.268046 0.658992
vt 0.003961 0.004906
vt 0.268046 0.004906
vt 0.335220 0.787630
vt 0.423747 0.780245
vt 0.519645 0.838400
vt 0.283688 0.787630
vt 0.275766 0.845787
vt 0.387156 0.896644
vt 0.423747 0.957070
vt 0.493368 0.848211
vt 0.449362 0.956970
vt 0.236534 0.771988
vt 0.237113 0.771277
vt 0.236284 0.772496
vt 0.274468 0.771277
vt 0.274487 0.771368
vt 0.274693 0.771988
vt 0.274943 0.772496
vt 0.235998 0.772874
vt 0.235689 0.773107
vt 0.275228 0.772874
vt 0.235367 0.773185
vt 0.275538 0.773107
vt 0.275860 0.773185
vt 0.234200 0.771988
vt 0.234450 0.772496
vt 0.317270 0.772496
vt 0.317520 0.771988
vt 0.316984 0.772874
vt 0.234735 0.772874
vt 0.235045 0.773107
vt 0.316675 0.773107
vt 0.316353 0.773185
vt 0.316031 0.773107
vt 0.315721 0.772874
vt 0.276182 0.773107
vt 0.276491 0.772874
vt 0.315436 0.772496
vt 0.315186 0.771988
vt 0.315186 0.771988
vt 0.277252 0.771277
vt 0.277232 0.771368
vt 0.317520 0.766206
vt 0.317725 0.766826
vt 0.317233 0.681850
vt 0.317520 0.680416
vt 0.317520 0.680416
vt 0.317725 0.679796
vt 0.317520 0.766206
vt 0.317878 0.767533
vt 0.317878 0.679089
vt 0.317972 0.768300
vt 0.317972 0.678322
vt 0.319874 0.668804
vt 0.318003 0.677525
vt 0.317520 0.674634
vt 0.317520 0.674634
vt 0.317520 0.771988
vt 0.317725 0.771368
vt 0.317725 0.675254
vt 0.317878 0.675961
vt 0.317878 0.770662
vt 0.317972 0.676727
vt 0.315186 0.674634
vt 0.314607 0.675345
vt 0.315436 0.674126
vt 0.277252 0.675345
vt 0.277232 0.675254
vt 0.277027 0.674634
vt 0.276777 0.674126
vt 0.315721 0.673748
vt 0.316031 0.673515
vt 0.276491 0.673748
vt 0.316353 0.673437
vt 0.276182 0.673515
vt 0.275860 0.673437
vt 0.317270 0.674126
vt 0.234450 0.674126
vt 0.234200 0.674634
vt 0.231846 0.668804
vt 0.234735 0.673748
vt 0.316984 0.673748
vt 0.316675 0.673515
vt 0.235045 0.673515
vt 0.235367 0.673437
vt 0.235689 0.673515
vt 0.235998 0.673748
vt 0.275538 0.673515
vt 0.237113 0.675345
vt 0.236534 0.674634
vt 0.274468 0.675345
vt 0.274487 0.675254
vt 0.274693 0.674634
vt 0.234200 0.680416
vt 0.233994 0.766826
vt 0.234486 0.764772
vt 0.234200 0.766206
vt 0.234200 0.766206
vt 0.234200 0.680416
vt 0.233994 0.679796
vt 0.233842 0.679089
vt 0.233842 0.767533
vt 0.233748 0.768300
vt 0.233748 0.678322
vt 0.233716 0.677525
vt 0.234200 0.674634
vt 0.234200 0.771988
vt 0.233994 0.771368
vt 0.233994 0.675254
vt 0.233842 0.675961
vt 0.233842 0.770662
vt 0.233748 0.676727
vt 0.273912 0.766917
vt 0.274209 0.769097
vt 0.274209 0.769097
vt 0.277510 0.769097
vt 0.277807 0.766917
vt 0.412766 0.787646
vt 0.501295 0.940526
vt 0.412766 0.845867
vt 0.527568 0.859492
vt 0.528316 0.878782
vt 0.298959 0.855791
vt 0.501293 0.939598
vt 0.277807 0.679705
vt 0.277510 0.677525
vt 0.277510 0.677525
vt 0.274209 0.677525
vt 0.273912 0.679705
vt 0.274209 0.677525
vt 0.261495 0.874893
vt 0.270097 0.855607
vt 0.507951 0.767452
vt 0.303498 0.855793
vt 0.377181 0.851956
vt 0.350798 0.851948
vt 0.335221 0.852866
vt 0.507949 0.674442
vt 0.507949 0.766535
vt 0.532673 0.878768
vt 0.248165 0.855599
vt 0.531525 0.668877
vt 0.335407 0.894637
vt 0.335588 0.894006
vt 0.337919 0.893863
vt 0.335817 0.893483
vt 0.337649 0.893371
vt 0.336087 0.893088
vt 0.336387 0.892837
vt 0.337349 0.893011
vt 0.336706 0.892739
vt 0.337031 0.892797
vt 0.338149 0.894470
vt 0.338329 0.895166
vt 0.338517 0.896721
vt 0.335220 0.896922
vt 0.338517 0.897520
vt 0.335283 0.897717
vt 0.338453 0.898291
vt 0.338329 0.899007
vt 0.335407 0.898477
vt 0.338149 0.899638
vt 0.335817 0.899780
vt 0.337919 0.900161
vt 0.336087 0.900272
vt 0.337649 0.900555
vt 0.337349 0.900807
vt 0.336387 0.900632
vt 0.337031 0.900905
vt 0.336706 0.900846
vt 0.335588 0.899174
vt 0.378159 0.905800
vt 0.378388 0.906323
vt 0.376057 0.906180
vt 0.378569 0.906954
vt 0.375827 0.906787
vt 0.378693 0.907669
vt 0.378756 0.908441
vt 0.375647 0.907483
vt 0.378756 0.909239
vt 0.375459 0.909038
vt 0.378693 0.910034
vt 0.375459 0.909837
vt 0.378569 0.910794
vt 0.378388 0.911491
vt 0.375523 0.910608
vt 0.378159 0.912097
vt 0.375827 0.911955
vt 0.377889 0.912590
vt 0.376057 0.912478
vt 0.377589 0.912950
vt 0.377270 0.913163
vt 0.376327 0.912873
vt 0.376945 0.913222
vt 0.376627 0.913124
vt 0.375647 0.911324
vt 0.375523 0.908244
vt 0.376327 0.905688
vt 0.376627 0.905328
vt 0.377270 0.905056
vt 0.516873 0.923766
vt 0.512751 0.910100
vt 0.512751 0.910100
vt 0.000000 0.000000
vt 0.361422 0.892314
vt 0.361652 0.892837
vt 0.359320 0.892695
vt 0.361832 0.893469
vt 0.359091 0.893301
vt 0.361956 0.894184
vt 0.362020 0.894955
vt 0.358910 0.893998
vt 0.362020 0.895754
vt 0.358723 0.895553
vt 0.361956 0.896549
vt 0.358723 0.896351
vt 0.361832 0.897309
vt 0.361652 0.898005
vt 0.358786 0.897123
vt 0.361422 0.898612
vt 0.359091 0.898470
vt 0.361152 0.899104
vt 0.359320 0.898993
vt 0.360852 0.899464
vt 0.360534 0.899678
vt 0.359590 0.899387
vt 0.360209 0.899737
vt 0.359890 0.899638
vt 0.358910 0.897838
vt 0.358786 0.894758
vt 0.359590 0.892203
vt 0.359890 0.891843
vt 0.360534 0.891570
vt 0.538103 0.819867
vt 0.538103 0.844761
vt 0.538103 0.844761
vt 0.538103 0.844761
vt 0.534636 0.849015
vt 0.534715 0.849678
vt 0.534625 0.848284
vt 0.537959 0.844193
vt 0.537755 0.843741
vt 0.534683 0.847512
vt 0.534807 0.846728
vt 0.537500 0.843423
vt 0.537202 0.843251
vt 0.534992 0.845963
vt 0.536875 0.843232
vt 0.535232 0.845247
vt 0.535518 0.844606
vt 0.535837 0.844066
vt 0.535622 0.725238
vt 0.231903 0.855921
vt 0.398744 0.908186
vt 0.398974 0.907580
vt 0.401305 0.907722
vt 0.399244 0.907088
vt 0.401075 0.907199
vt 0.399544 0.906728
vt 0.399862 0.906514
vt 0.400805 0.906805
vt 0.400187 0.906455
vt 0.400505 0.906553
vt 0.401485 0.908354
vt 0.401610 0.909069
vt 0.401673 0.910639
vt 0.398376 0.910438
vt 0.401610 0.911434
vt 0.398376 0.911236
vt 0.401485 0.912194
vt 0.401305 0.912890
vt 0.398439 0.912008
vt 0.401075 0.913497
vt 0.398744 0.913355
vt 0.400805 0.913989
vt 0.398974 0.913877
vt 0.400505 0.914349
vt 0.400187 0.914563
vt 0.399244 0.914272
vt 0.399862 0.914621
vt 0.399544 0.914523
vt 0.398564 0.912723
vt 0.519415 0.736918
vt 0.519415 0.736918
vt 0.494408 0.768879
vt 0.494390 0.768988
vt 0.494454 0.769387
vt 0.495357 0.770433
vt 0.495357 0.770433
vt 0.495357 0.770433
vt 0.507950 0.668807
vt 0.538103 0.780245
vt 0.538103 0.805139
vt 0.538103 0.805139
vt 0.538103 0.805139
vt 0.534636 0.809393
vt 0.534715 0.810056
vt 0.534625 0.808662
vt 0.537959 0.804571
vt 0.537755 0.804119
vt 0.534683 0.807889
vt 0.534807 0.807106
vt 0.537500 0.803801
vt 0.537202 0.803629
vt 0.534992 0.806341
vt 0.536875 0.803609
vt 0.535232 0.805625
vt 0.535518 0.804984
vt 0.535837 0.804444
vt 0.497691 0.766944
vt 0.497515 0.766955
vt 0.500025 0.767543
vt 0.499525 0.767289
vt 0.490362 0.682222
vt 0.497515 0.673279
vt 0.477061 0.712485
vt 0.431151 0.668804
vt 0.490288 0.668804
vt 0.445594 0.673233
vt 0.475845 0.673233
vt 0.423923 0.673279
vt 0.431076 0.682222
vt 0.423923 0.764404
vt 0.431076 0.755461
vt 0.431151 0.768879
vt 0.535418 0.701825
vt 0.535418 0.701825
vt 0.531575 0.715427
vt 0.311707 0.884899
vt 0.299533 0.884906
vt 0.531318 0.859490
vt 0.507951 0.675991
vt 0.536753 0.888603
vt 0.365870 0.851948
vt 0.365791 0.852611
vt 0.365780 0.853342
vt 0.369258 0.856865
vt 0.369258 0.856865
vt 0.369258 0.881759
vt 0.369258 0.856865
vt 0.365838 0.854114
vt 0.365962 0.854898
vt 0.369114 0.857433
vt 0.368910 0.857885
vt 0.368030 0.858395
vt 0.366148 0.855663
vt 0.366388 0.856379
vt 0.368655 0.858203
vt 0.368358 0.858375
vt 0.366673 0.857020
vt 0.366992 0.857560
vt 0.297697 0.855793
vt 0.412766 0.874977
vt 0.291611 0.903297
vt 0.317110 0.904190
vt 0.235837 0.890137
vt 0.235837 0.890137
vt 0.231944 0.902210
vt 0.256088 0.855602
vt 0.377181 0.881069
vt 0.497047 0.766983
vt 0.496428 0.767100
vt 0.494454 0.768589
vt 0.494641 0.768206
vt 0.495857 0.767289
vt 0.283688 0.903425
vt 0.335233 0.858183
vt 0.339375 0.865413
vt 0.516845 0.848211
vt 0.516847 0.849666
vt 0.512741 0.872717
vt 0.497047 0.716837
vt 0.497515 0.720875
vt 0.497047 0.720846
vt 0.496428 0.716953
vt 0.495857 0.717142
vt 0.496428 0.720730
vt 0.495857 0.720541
vt 0.495357 0.717396
vt 0.494946 0.717706
vt 0.495357 0.720287
vt 0.494946 0.719977
vt 0.494641 0.718059
vt 0.494454 0.718443
vt 0.494641 0.719624
vt 0.424391 0.720846
vt 0.423923 0.720875
vt 0.424391 0.716837
vt 0.425011 0.720730
vt 0.425581 0.720541
vt 0.425011 0.716953
vt 0.425581 0.717142
vt 0.426082 0.720287
vt 0.426492 0.719977
vt 0.426082 0.717396
vt 0.426492 0.717706
vt 0.426797 0.719624
vt 0.426985 0.719240
vt 0.426797 0.718059
vt 0.388967 0.914563
vt 0.388643 0.914621
vt 0.388324 0.914523
vt 0.388024 0.914272
vt 0.387524 0.913355
vt 0.389856 0.913497
vt 0.387344 0.912723
vt 0.390085 0.912890
vt 0.387220 0.912008
vt 0.387156 0.911236
vt 0.390266 0.912194
vt 0.387156 0.910438
vt 0.390453 0.910639
vt 0.387220 0.909643
vt 0.390453 0.909840
vt 0.387344 0.908883
vt 0.387524 0.908186
vt 0.390390 0.909069
vt 0.387754 0.907580
vt 0.390085 0.907722
vt 0.388024 0.907088
vt 0.389856 0.907199
vt 0.388324 0.906728
vt 0.388643 0.906514
vt 0.389586 0.906805
vt 0.388967 0.906455
vt 0.389286 0.906553
vt 0.390266 0.908354
vt 0.390390 0.911434
vt 0.256088 0.884710
vt 0.259184 0.898888
vt 0.259184 0.903998
vt 0.412766 0.816756
vt 0.311707 0.855793
vt 0.527568 0.888603
vt 0.497691 0.720885
vt 0.325716 0.914005
vt 0.316593 0.875081
vt 0.243991 0.913602
vt 0.348569 0.900807
vt 0.348250 0.900905
vt 0.347925 0.900846
vt 0.347607 0.900632
vt 0.347037 0.899780
vt 0.349368 0.899638
vt 0.346807 0.899174
vt 0.349549 0.899007
vt 0.346627 0.898477
vt 0.346503 0.897717
vt 0.349673 0.898291
vt 0.346439 0.896922
vt 0.349736 0.896721
vt 0.346439 0.896124
vt 0.349673 0.895927
vt 0.346503 0.895352
vt 0.346627 0.894637
vt 0.349549 0.895166
vt 0.346807 0.894006
vt 0.349139 0.893863
vt 0.347037 0.893483
vt 0.348869 0.893371
vt 0.347307 0.893088
vt 0.347607 0.892837
vt 0.348569 0.893011
vt 0.347925 0.892739
vt 0.348250 0.892797
vt 0.349368 0.894470
vt 0.349736 0.897520
vt 0.283688 0.855793
vt 0.288610 0.855791
vt 0.325716 0.855798
vt 0.275614 0.903998
vt 0.273785 0.904001
vt 0.272517 0.884710
vt 0.325716 0.884911
vt 0.285061 0.875080
vt 0.299533 0.914002
vt 0.423747 0.720885
vt 0.414539 0.904073
vt 0.775969 0.657650
vt 0.547976 0.995094
vt 0.768046 0.004906
vt 0.003961 0.993998
vt 0.275969 0.658992
vt 0.003961 0.658992
vn 0.0000 -1.0000 0.0000
vn 0.0000 0.0000 1.0000
vn -1.0000 0.0000 0.0000
vn 0.0000 0.0000 -1.0000
vn 1.0000 0.0000 0.0000
vn 0.0000 1.0000 0.0000
vn -0.6344 0.0000 -0.7730
vn -0.4714 0.0000 -0.8819
vn -0.2903 0.0000 -0.9569
vn -0.0980 0.0000 -0.9952
vn 0.0980 0.0000 -0.9952
vn 0.2903 0.0000 -0.9569
vn 0.4714 0.0000 -0.8819
vn 0.6344 0.0000 -0.7730
vn 0.8819 0.0000 -0.4714
vn 0.9569 0.0000 -0.2903
vn 0.9952 0.0000 -0.0980
vn 0.9952 0.0000 0.0980
vn 0.9569 0.0000 0.2903
vn 0.8819 0.0000 0.4714
vn 0.7730 0.0000 0.6344
vn 0.7730 0.0000 -0.6344
vn 0.8000 0.0000 -0.6000
vn 0.6344 0.0000 0.7730
vn 0.4714 0.0000 0.8819
vn 0.2903 0.0000 0.9569
vn 0.0980 0.0000 0.9952
vn -0.0980 0.0000 0.9952
vn -0.2903 0.0000 0.9569
vn -0.4714 0.0000 0.8819
vn -0.6344 0.0000 0.7730
vn -0.8819 0.0000 0.4714
vn -0.9569 0.0000 0.2903
vn -0.9952 0.0000 0.0980
vn -0.9952 0.0000 -0.0980
vn -0.9569 0.0000 -0.2903
vn -0.8819 0.0000 -0.4714
vn -0.7730 0.0000 -0.6344
vn -0.7730 0.0000 0.6344
vn 0.4438 0.0000 -0.8961
vn 0.0000 -0.4327 -0.9015
vn 0.5707 -0.0357 -0.8204
vn 0.8961 -0.0000 0.4438
vn 0.9015 -0.4327 0.0000
vn 0.0000 -0.4327 0.9015
vn -0.3349 0.0209 0.9420
vn -0.8961 -0.0000 -0.4438
vn -0.9015 -0.4327 0.0000
vn -0.8961 0.0000 0.4438
vn -0.4438 0.0000 -0.8961
vn 0.4438 0.0000 0.8961
vn -0.4438 0.0000 0.8961
vn 0.4735 0.8545 -0.2136
vn 0.9475 0.0000 -0.3199
vn -0.9475 0.0000 -0.3199
vn -0.9963 0.0000 0.0864
vn 0.9475 0.0000 0.3198
vn -0.9475 0.0000 0.3199
vn 0.0000 0.2685 -0.9633
vn 0.0000 1.0000 -0.0001
vn 0.4441 0.8014 0.4007
vn 0.0000 1.0000 0.0001
vn -0.4441 0.8014 -0.4007
vn -0.7272 0.0000 -0.6864
vn -0.2646 0.0000 -0.9643
vn -0.6929 0.0000 0.7211
vn 0.7883 0.0000 0.6153
vn -0.8891 0.0000 -0.4577
vn -0.8000 0.0000 -0.6000
vn 0.1710 -0.3116 0.9347
vn 0.3812 0.0000 -0.9245
vn -0.6929 0.0000 -0.7211
vn -0.2384 0.4343 0.8686
vn -0.6362 0.0000 -0.7715
vn 0.8961 0.0000 -0.4438
vn 0.8539 0.0000 -0.5204
vn 0.6929 0.0000 -0.7211
vn -0.9959 0.0000 -0.0907
vn 0.9475 0.0000 0.3199
vn -0.9475 0.0000 0.3198
usemtl Material
s off
f 2/1/1 4/2/1 1/3/1
f 4/4/2 6/5/2 1/6/2
f 1/7/3 7/8/3 2/9/3
f 2/10/4 8/11/4 3/12/4
f 3/13/5 5/14/5 4/15/5
f 5/16/1 10/17/1 6/18/1
f 6/18/1 11/19/1 7/20/1
f 7/20/1 12/21/1 8/22/1
f 8/22/1 9/23/1 5/16/1
f 9/24/2 14/25/2 10/26/2
f 10/27/3 15/28/3 11/29/3
f 11/30/4 16/31/4 12/32/4
f 12/33/5 13/34/5 9/35/5
f 28/36/6 31/37/6 27/38/6
f 14/39/6 67/40/6 68/41/6
f 90/42/6 83/43/6 84/44/6
f 113/45/6 114/46/6 13/47/6
f 129/48/6 133/49/6 134/50/6
f 136/51/6 137/52/6 138/53/6
f 33/54/7 142/55/7 34/56/7
f 34/57/8 143/58/8 35/59/8
f 35/59/9 144/60/9 36/61/9
f 36/61/10 145/62/10 37/63/10
f 37/63/11 146/64/11 38/65/11
f 38/65/12 147/66/12 39/67/12
f 39/68/13 148/69/13 40/70/13
f 43/71/8 150/72/8 44/73/8
f 44/73/9 151/74/9 45/75/9
f 45/75/10 152/76/10 46/77/10
f 46/77/11 153/78/11 47/79/11
f 47/79/12 154/80/12 48/81/12
f 48/82/13 155/83/13 49/84/13
f 155/83/14 156/85/14 128/86/14
f 159/87/6 51/88/6 158/89/6
f 55/90/15 163/91/15 56/92/15
f 56/92/16 164/93/16 57/94/16
f 57/94/17 165/95/17 58/96/17
f 58/96/18 166/97/18 59/98/18
f 59/98/19 167/99/19 60/100/19
f 60/100/20 168/101/20 61/102/20
f 61/102/21 169/103/21 62/104/21
f 64/105/22 171/106/22 65/107/22
f 65/107/15 172/108/15 66/109/15
f 66/109/16 173/110/16 67/111/16
f 67/111/17 174/112/17 68/113/17
f 68/113/18 175/114/18 69/115/18
f 69/115/19 176/116/19 70/117/19
f 70/117/20 177/118/20 71/119/20
f 72/120/23 157/121/23 73/122/23
f 180/123/6 184/124/6 185/125/6
f 187/126/6 188/127/6 189/128/6
f 192/129/24 193/130/24 194/131/24
f 90/132/25 195/133/25 91/134/25
f 91/135/26 196/136/26 92/137/26
f 92/137/27 197/138/27 93/139/27
f 93/139/28 198/140/28 94/141/28
f 94/141/29 199/142/29 95/143/29
f 95/144/30 200/145/30 96/146/30
f 98/147/25 202/148/25 99/149/25
f 99/150/26 203/151/26 100/152/26
f 100/152/27 204/153/27 101/154/27
f 101/154/28 205/155/28 102/156/28
f 102/156/29 206/157/29 103/158/29
f 103/159/30 207/160/30 104/161/30
f 207/160/31 208/162/31 179/163/31
f 211/164/6 106/165/6 210/166/6
f 108/167/3 213/168/3 109/169/3
f 110/170/32 215/171/32 111/172/32
f 111/172/33 216/173/33 112/174/33
f 112/174/34 217/175/34 113/176/34
f 113/176/35 218/177/35 114/178/35
f 114/178/36 219/179/36 115/180/36
f 115/180/37 220/181/37 116/182/37
f 116/182/38 221/183/38 117/184/38
f 118/185/39 223/186/39 119/187/39
f 119/187/32 224/188/32 120/189/32
f 120/189/33 225/190/33 121/191/33
f 121/191/34 226/192/34 122/193/34
f 122/193/35 227/194/35 123/195/35
f 123/195/36 228/196/36 124/197/36
f 124/197/37 229/198/37 125/199/37
f 126/200/2 209/201/2 127/202/2
f 17/203/40 128/86/40 231/204/40
f 129/205/41 232/206/41 130/207/41
f 136/208/41 233/209/41 234/210/41
f 248/211/6 249/212/6 175/213/6
f 64/105/42 41/214/42 148/69/42
f 264/215/6 265/216/6 262/217/6
f 128/86/22 258/218/22 267/219/22
f 268/220/43 51/221/43 157/121/43
f 159/222/44 268/220/44 269/223/44
f 54/224/2 160/225/2 161/226/2
f 283/227/6 284/228/6 281/229/6
f 98/147/24 63/230/24 169/103/24
f 294/231/6 295/232/6 286/233/6
f 180/234/45 305/235/45 181/236/45
f 187/237/45 306/238/45 307/239/45
f 308/240/21 193/130/21 192/129/21
f 322/241/6 323/242/6 227/243/6
f 118/185/46 97/244/46 200/145/46
f 179/163/39 277/245/39 325/246/39
f 209/201/47 326/247/47 106/248/47
f 210/249/48 327/250/48 211/251/48
f 212/252/49 108/167/49 107/253/49
f 327/254/6 331/255/6 332/256/6
f 43/257/7 42/258/7 221/183/7
f 342/259/6 343/260/6 334/261/6
f 231/262/6 352/263/6 353/264/6
f 358/265/6 359/266/6 361/267/6
f 140/268/50 31/269/50 234/210/50
f 296/270/39 250/271/39 297/272/39
f 295/273/31 235/274/31 296/270/31
f 294/275/30 236/276/30 295/273/30
f 293/277/29 237/278/29 294/279/29
f 292/280/28 238/281/28 293/277/28
f 291/282/27 239/283/27 292/280/27
f 290/284/26 240/285/26 291/282/26
f 289/286/25 241/287/25 290/288/25
f 288/289/24 242/290/24 289/286/24
f 302/291/37 244/292/37 303/293/37
f 301/294/36 245/295/36 302/291/36
f 300/296/35 246/297/35 301/294/35
f 299/298/34 247/299/34 300/296/34
f 298/300/33 248/301/33 299/298/33
f 297/272/32 249/302/32 298/300/32
f 368/303/24 266/304/24 367/305/24
f 369/306/21 251/307/21 368/303/21
f 370/308/20 252/309/20 369/306/20
f 371/310/19 253/311/19 370/308/19
f 353/312/17 255/313/17 354/314/17
f 352/315/16 256/316/16 353/312/16
f 267/219/15 257/317/15 352/315/15
f 110/170/39 109/169/39 213/168/39
f 332/318/31 259/319/31 333/320/31
f 331/321/30 260/322/30 332/318/30
f 330/323/29 261/324/29 331/325/29
f 329/326/28 262/327/28 330/323/28
f 373/328/26 264/329/26 372/330/26
f 367/305/25 265/331/25 373/332/25
f 383/333/6 384/334/6 375/335/6
f 382/336/7 285/337/7 383/338/7
f 381/339/38 270/340/38 382/336/38
f 380/341/37 271/342/37 381/339/37
f 379/343/36 272/344/36 380/341/36
f 378/345/35 273/346/35 379/343/35
f 377/347/34 274/348/34 378/345/34
f 376/349/33 275/350/33 377/347/33
f 325/246/32 276/351/32 376/349/32
f 389/352/14 278/353/14 390/354/14
f 388/355/13 279/356/13 389/352/13
f 387/357/12 280/358/12 388/359/12
f 386/360/11 281/361/11 387/357/11
f 385/362/10 282/363/10 386/360/10
f 384/364/9 283/365/9 385/362/9
f 383/366/8 284/367/8 384/364/8
f 365/368/3 286/369/3 366/370/3
f 177/118/21 243/371/21 178/372/21
f 141/373/38 140/374/38 244/292/38
f 192/375/51 88/376/51 307/239/51
f 350/377/20 309/378/20 308/240/20
f 344/379/22 324/380/22 345/381/22
f 343/382/14 310/383/14 344/379/14
f 342/384/13 311/385/13 343/382/13
f 341/386/12 312/387/12 342/388/12
f 340/389/11 313/390/11 341/386/11
f 339/391/10 314/392/10 340/389/10
f 338/393/9 315/394/9 339/391/9
f 337/395/8 316/396/8 338/393/8
f 336/397/7 317/398/7 337/399/7
f 349/400/19 319/401/19 350/377/19
f 348/402/18 320/403/18 349/400/18
f 347/404/17 321/405/17 348/402/17
f 346/406/16 322/407/16 347/404/16
f 345/381/15 323/408/15 346/406/15
f 368/409/6 367/410/6 357/411/6
f 359/412/5 334/413/5 360/414/5
f 229/198/38 318/415/38 230/416/38
f 304/417/52 74/418/52 179/163/52
f 363/419/3 374/420/3 364/421/3
f 269/223/53 374/422/53 160/423/53
f 351/424/18 354/314/18 255/313/18
f 263/425/27 328/426/27 264/329/27
f 55/90/22 54/427/22 161/428/22
f 399/429/6 400/430/6 356/431/6
f 416/432/6 417/433/6 362/434/6
f 399/435/28 426/436/28 400/437/28
f 400/437/29 427/438/29 401/439/29
f 456/440/6 427/441/6 430/442/6
f 398/443/27 425/444/27 399/435/27
f 401/445/30 456/446/30 402/447/30
f 402/447/31 455/448/31 403/449/31
f 403/449/39 454/450/39 404/451/39
f 404/451/32 453/452/32 405/453/32
f 405/453/33 452/454/33 406/455/33
f 407/456/34 452/454/34 451/457/34
f 458/458/35 451/457/35 450/459/35
f 133/460/36 449/461/36 134/462/36
f 448/463/37 19/464/37 18/465/37
f 19/464/38 447/466/38 20/467/38
f 20/467/7 446/468/7 21/469/7
f 21/470/8 445/471/8 22/472/8
f 22/472/9 444/473/9 23/474/9
f 23/474/10 443/475/10 24/476/10
f 24/476/11 442/477/11 25/478/11
f 25/478/12 441/479/12 26/480/12
f 26/481/13 440/482/13 27/483/13
f 27/483/14 439/484/14 28/485/14
f 28/485/22 438/486/22 29/487/22
f 437/488/15 137/489/15 30/490/15
f 137/489/16 436/491/16 138/492/16
f 436/491/17 435/493/17 459/494/17
f 391/495/18 435/493/18 434/496/18
f 392/497/19 433/498/19 393/499/19
f 393/499/20 432/500/20 394/501/20
f 394/501/21 431/502/21 395/503/21
f 395/503/24 430/504/24 396/505/24
f 396/505/25 429/506/25 397/507/25
f 397/508/26 428/509/26 398/443/26
f 458/510/6 460/511/6 232/512/6
f 131/513/4 458/514/4 132/515/4
f 233/516/54 139/517/54 459/494/54
f 391/518/6 233/519/6 459/520/6
f 131/521/55 232/522/55 460/523/55
f 415/524/10 462/525/10 416/526/10
f 416/526/11 463/527/11 417/528/11
f 491/529/6 492/530/6 465/531/6
f 414/532/9 461/533/9 415/524/9
f 417/528/12 492/534/12 418/535/12
f 418/536/13 491/537/13 419/538/13
f 419/538/14 490/539/14 420/540/14
f 420/540/22 489/541/22 421/542/22
f 421/542/15 488/543/15 422/544/15
f 422/544/16 487/545/16 423/546/16
f 486/547/17 424/548/17 487/545/17
f 183/549/18 485/550/18 184/551/18
f 184/551/19 484/552/19 185/553/19
f 75/554/20 185/553/20 484/552/20
f 76/555/21 482/556/21 77/557/21
f 77/557/24 481/558/24 78/559/24
f 78/559/25 480/560/25 79/561/25
f 79/562/26 479/563/26 80/564/26
f 80/564/27 478/565/27 81/566/27
f 81/566/28 477/567/28 82/568/28
f 82/568/29 476/569/29 83/570/29
f 83/571/30 475/572/30 84/573/30
f 84/573/31 474/574/31 85/575/31
f 85/575/39 473/576/39 86/577/39
f 87/578/32 86/577/32 473/576/32
f 188/579/33 471/580/33 189/581/33
f 470/582/56 494/583/56 495/584/56
f 408/585/35 470/582/35 469/586/35
f 409/587/36 468/588/36 410/589/36
f 410/589/37 467/590/37 411/591/37
f 411/591/38 466/592/38 412/593/38
f 412/593/7 465/594/7 413/595/7
f 413/596/8 464/597/8 414/532/8
f 305/598/6 424/599/6 493/600/6
f 182/601/57 305/602/57 493/603/57
f 190/604/2 496/605/2 191/606/2
f 306/607/6 495/608/6 494/609/6
f 306/610/58 191/611/58 496/612/58
f 499/613/5 498/614/5 497/615/5
f 503/616/2 500/617/2 499/618/2
f 501/619/3 504/620/3 503/621/3
f 497/622/4 502/623/4 501/624/4
f 497/625/6 503/626/6 499/627/6
f 502/628/1 500/629/1 504/630/1
f 2/1/1 3/631/1 4/2/1
f 4/4/2 5/632/2 6/5/2
f 1/7/3 6/633/3 7/8/3
f 2/10/4 7/634/4 8/11/4
f 3/13/5 8/635/5 5/14/5
f 5/16/1 9/23/1 10/17/1
f 6/18/1 10/17/1 11/19/1
f 7/20/1 11/19/1 12/21/1
f 8/22/1 12/21/1 9/23/1
f 9/24/2 13/636/2 14/25/2
f 10/27/3 14/637/3 15/28/3
f 11/30/4 15/638/4 16/31/4
f 12/33/5 16/639/5 13/34/5
f 50/640/6 17/641/6 49/642/6
f 17/641/6 18/643/6 19/644/6
f 17/641/6 19/644/6 20/645/6
f 17/641/6 20/645/6 21/646/6
f 49/642/6 17/641/6 21/646/6
f 48/647/6 49/642/6 21/646/6
f 47/648/6 48/647/6 13/47/6
f 48/647/6 21/646/6 22/649/6
f 48/647/6 22/649/6 13/47/6
f 46/650/6 47/648/6 13/47/6
f 22/649/6 23/651/6 13/47/6
f 23/651/6 24/652/6 13/47/6
f 13/47/6 42/653/6 43/654/6
f 40/655/6 41/656/6 14/39/6
f 39/657/6 40/655/6 14/39/6
f 13/47/6 43/654/6 44/658/6
f 13/47/6 44/658/6 45/659/6
f 38/660/6 39/657/6 14/39/6
f 37/661/6 38/660/6 14/39/6
f 13/47/6 45/659/6 46/650/6
f 37/661/6 14/39/6 36/662/6
f 14/39/6 13/47/6 24/652/6
f 36/662/6 14/39/6 35/663/6
f 14/39/6 24/652/6 25/664/6
f 35/663/6 14/39/6 26/665/6
f 14/39/6 25/664/6 26/665/6
f 34/666/6 35/663/6 26/665/6
f 31/37/6 32/667/6 33/668/6
f 33/668/6 34/666/6 31/37/6
f 34/666/6 26/665/6 27/38/6
f 34/666/6 27/38/6 31/37/6
f 30/669/6 31/37/6 29/670/6
f 29/670/6 31/37/6 28/36/6
f 73/671/6 51/88/6 71/672/6
f 51/88/6 52/673/6 71/672/6
f 53/674/2 54/675/2 55/676/2
f 52/673/6 53/674/6 55/676/6
f 71/672/6 52/673/6 55/676/6
f 71/672/1 72/677/1 73/671/1
f 70/678/6 71/672/6 56/679/6
f 71/672/6 55/676/6 56/679/6
f 69/680/6 70/678/6 14/39/6
f 70/678/6 56/679/6 14/39/6
f 56/679/6 57/681/6 15/682/6
f 14/39/6 56/679/6 15/682/6
f 68/41/6 69/680/6 14/39/6
f 57/681/6 58/683/6 15/682/6
f 62/684/6 63/685/6 15/682/6
f 14/39/59 41/656/59 64/686/59
f 14/39/6 64/686/6 65/687/6
f 61/688/6 62/684/6 15/682/6
f 60/689/6 61/688/6 15/682/6
f 14/39/6 65/687/6 66/690/6
f 14/39/6 66/690/6 67/40/6
f 59/691/6 60/689/6 15/682/6
f 58/683/6 59/691/6 15/682/6
f 105/692/6 74/693/6 104/694/6
f 74/693/6 75/695/6 76/696/6
f 74/693/6 76/696/6 77/697/6
f 74/693/6 77/697/6 78/698/6
f 104/694/6 74/693/6 78/698/6
f 103/699/6 104/694/6 78/698/6
f 102/700/60 103/699/60 15/682/60
f 103/699/6 78/698/6 79/701/6
f 103/699/6 79/701/6 15/682/6
f 101/702/6 102/700/6 15/682/6
f 79/701/6 80/703/6 15/682/6
f 80/703/6 81/704/6 15/682/6
f 15/682/6 63/685/6 98/705/6
f 96/706/6 97/707/6 16/708/6
f 95/709/6 96/706/6 16/708/6
f 15/682/6 98/705/6 99/710/6
f 15/682/6 99/710/6 100/711/6
f 94/712/6 95/709/6 16/708/6
f 93/713/6 94/712/6 16/708/6
f 15/682/6 100/711/6 101/702/6
f 93/713/6 16/708/6 92/714/6
f 16/708/6 15/682/6 81/704/6
f 92/714/6 16/708/6 91/715/6
f 16/708/6 81/704/6 82/716/6
f 91/715/6 16/708/6 83/43/6
f 16/708/6 82/716/6 83/43/6
f 88/717/6 89/718/6 90/42/6
f 90/42/6 91/715/6 83/43/6
f 87/719/6 88/717/6 86/720/6
f 88/717/6 90/42/6 84/44/6
f 86/720/6 88/717/6 85/721/6
f 85/721/6 88/717/6 84/44/6
f 127/722/6 106/165/6 110/723/6
f 106/165/6 107/724/6 110/723/6
f 107/724/6 108/725/6 110/723/6
f 108/725/2 109/726/2 110/723/2
f 126/727/2 127/722/2 110/723/2
f 125/728/6 126/727/6 110/723/6
f 125/728/6 110/723/6 124/729/6
f 110/723/6 111/730/6 124/729/6
f 124/729/6 111/730/6 13/47/6
f 111/730/6 112/731/6 13/47/6
f 123/732/6 124/729/6 16/708/6
f 124/729/6 13/47/6 16/708/6
f 112/731/6 113/45/6 13/47/6
f 122/733/6 123/732/6 16/708/6
f 16/708/6 97/707/6 118/734/6
f 117/735/6 42/653/6 13/47/6
f 116/736/6 117/735/6 13/47/6
f 16/708/6 118/734/6 119/737/6
f 16/708/6 119/737/6 120/738/6
f 115/739/6 116/736/6 13/47/6
f 114/46/6 115/739/6 13/47/6
f 16/708/6 120/738/6 121/740/6
f 16/708/6 121/740/6 122/733/6
f 17/641/6 129/48/6 18/643/6
f 129/48/6 130/741/6 133/49/6
f 133/49/6 130/741/6 131/742/6
f 131/742/6 132/743/6 133/49/6
f 134/50/6 18/643/6 129/48/6
f 139/744/6 135/745/6 138/53/6
f 135/745/6 136/51/6 138/53/6
f 136/51/6 31/37/6 30/669/6
f 136/51/6 30/669/6 137/52/6
f 33/54/7 141/373/7 142/55/7
f 34/57/8 142/746/8 143/58/8
f 35/59/9 143/58/9 144/60/9
f 36/61/10 144/60/10 145/62/10
f 37/63/11 145/62/11 146/64/11
f 38/65/12 146/64/12 147/66/12
f 39/68/13 147/747/13 148/69/13
f 43/71/8 149/748/8 150/72/8
f 44/73/9 150/72/9 151/74/9
f 45/75/10 151/74/10 152/76/10
f 46/77/11 152/76/11 153/78/11
f 47/79/12 153/78/12 154/80/12
f 48/82/13 154/749/13 155/83/13
f 128/86/14 50/750/14 49/84/14
f 49/84/14 155/83/14 128/86/14
f 159/87/6 52/673/6 51/88/6
f 55/90/15 162/751/15 163/91/15
f 56/92/16 163/91/16 164/93/16
f 57/94/17 164/93/17 165/95/17
f 58/96/18 165/95/18 166/97/18
f 59/98/19 166/97/19 167/99/19
f 60/100/20 167/99/20 168/101/20
f 61/102/21 168/101/21 169/103/21
f 64/105/22 170/752/22 171/106/22
f 65/107/15 171/106/15 172/108/15
f 66/109/16 172/108/16 173/110/16
f 67/111/17 173/110/17 174/112/17
f 68/113/18 174/112/18 175/114/18
f 69/115/19 175/114/19 176/116/19
f 70/117/20 176/116/20 177/118/20
f 72/120/23 178/372/23 157/121/23
f 74/693/6 180/123/6 75/695/6
f 180/123/6 181/753/6 184/124/6
f 181/753/6 182/754/6 183/755/6
f 181/753/6 183/755/6 184/124/6
f 185/125/6 75/695/6 180/123/6
f 191/756/6 186/757/6 189/128/6
f 186/757/6 187/126/6 189/128/6
f 187/126/6 88/717/6 87/719/6
f 187/126/6 87/719/6 188/127/6
f 189/128/6 190/758/6 191/756/6
f 194/131/24 90/132/24 192/129/24
f 90/132/24 89/759/24 192/129/24
f 90/132/25 194/131/25 195/133/25
f 91/135/26 195/760/26 196/136/26
f 92/137/27 196/136/27 197/138/27
f 93/139/28 197/138/28 198/140/28
f 94/141/29 198/140/29 199/142/29
f 95/144/30 199/761/30 200/145/30
f 98/147/25 201/762/25 202/148/25
f 99/150/26 202/763/26 203/151/26
f 100/152/27 203/151/27 204/153/27
f 101/154/28 204/153/28 205/155/28
f 102/156/29 205/155/29 206/157/29
f 103/159/30 206/764/30 207/160/30
f 179/163/31 105/765/31 104/161/31
f 104/161/31 207/160/31 179/163/31
f 211/164/6 107/724/6 106/165/6
f 108/167/3 212/252/3 213/168/3
f 110/170/32 214/766/32 215/171/32
f 111/172/33 215/171/33 216/173/33
f 112/174/34 216/173/34 217/175/34
f 113/176/35 217/175/35 218/177/35
f 114/178/36 218/177/36 219/179/36
f 115/180/37 219/179/37 220/181/37
f 116/182/38 220/181/38 221/183/38
f 118/185/39 222/767/39 223/186/39
f 119/187/32 223/186/32 224/188/32
f 120/189/33 224/188/33 225/190/33
f 121/191/34 225/190/34 226/192/34
f 122/193/35 226/192/35 227/194/35
f 123/195/36 227/194/36 228/196/36
f 124/197/37 228/196/37 229/198/37
f 126/200/3 230/416/3 209/201/3
f 231/204/40 129/768/40 17/203/40
f 17/203/40 50/750/40 128/86/40
f 129/205/41 231/769/41 232/206/41
f 136/208/41 135/770/41 233/209/41
f 250/771/6 235/772/6 243/773/6
f 235/772/6 236/774/6 242/775/6
f 236/774/6 237/776/6 242/775/6
f 237/776/6 238/777/6 241/778/6
f 242/775/6 237/776/6 241/778/6
f 238/777/6 239/779/6 240/780/6
f 240/780/6 241/778/6 238/777/6
f 242/775/6 243/773/6 235/772/6
f 243/773/6 177/781/6 250/771/6
f 177/781/6 176/782/6 250/771/6
f 176/782/6 175/213/6 249/212/6
f 250/771/6 176/782/6 249/212/6
f 175/213/6 174/783/6 247/784/6
f 174/783/6 173/785/6 246/786/6
f 173/785/6 172/787/6 246/786/6
f 172/787/6 171/788/6 245/789/6
f 246/786/6 172/787/6 245/789/6
f 171/788/6 170/790/6 141/791/6
f 170/790/6 148/792/6 142/793/6
f 148/792/6 147/794/6 142/793/6
f 147/794/6 146/795/6 143/796/6
f 142/793/6 147/794/6 143/796/6
f 146/795/6 145/797/6 144/798/6
f 144/798/6 143/796/6 146/795/6
f 142/793/6 141/791/6 170/790/6
f 141/791/6 244/799/6 171/788/6
f 244/799/6 245/789/6 171/788/6
f 246/786/6 247/784/6 174/783/6
f 247/784/6 248/211/6 175/213/6
f 148/69/14 170/752/14 64/105/14
f 41/214/14 40/70/14 148/69/14
f 266/800/6 251/801/6 259/802/6
f 251/801/6 252/803/6 214/804/6
f 252/803/6 253/805/6 214/804/6
f 253/805/6 254/806/6 215/807/6
f 214/804/6 253/805/6 215/807/6
f 254/806/6 255/808/6 217/809/6
f 255/808/6 256/810/6 218/811/6
f 256/810/6 257/812/6 218/811/6
f 257/812/6 258/813/6 219/814/6
f 218/811/6 257/812/6 219/814/6
f 258/813/6 156/815/6 221/816/6
f 156/815/6 155/817/6 149/818/6
f 155/817/6 154/819/6 149/818/6
f 154/819/6 153/820/6 150/821/6
f 149/818/6 154/819/6 150/821/6
f 153/820/6 152/822/6 151/823/6
f 151/823/6 150/821/6 153/820/6
f 149/818/6 221/816/6 156/815/6
f 221/816/6 220/824/6 258/813/6
f 220/824/6 219/814/6 258/813/6
f 218/811/6 217/809/6 255/808/6
f 217/809/6 216/825/6 254/806/6
f 216/825/6 215/807/6 254/806/6
f 214/804/6 259/802/6 251/801/6
f 259/802/6 260/826/6 266/800/6
f 260/826/6 261/827/6 266/800/6
f 261/827/6 262/217/6 265/216/6
f 266/800/6 261/827/6 265/216/6
f 262/217/6 263/828/6 264/215/6
f 128/86/22 156/85/22 258/218/22
f 268/220/43 158/829/43 51/221/43
f 51/221/43 73/122/43 157/121/43
f 157/121/61 287/830/61 268/220/61
f 287/830/5 365/831/5 268/220/5
f 159/222/44 158/829/44 268/220/44
f 54/224/2 53/832/2 160/225/2
f 285/833/6 270/834/6 278/835/6
f 270/834/6 271/836/6 162/837/6
f 271/836/6 272/838/6 162/837/6
f 272/838/6 273/839/6 163/840/6
f 162/837/6 272/838/6 163/840/6
f 273/839/6 274/841/6 165/842/6
f 274/841/6 275/843/6 166/844/6
f 275/843/6 276/845/6 166/844/6
f 276/845/6 277/846/6 167/847/6
f 166/844/6 276/845/6 167/847/6
f 277/846/6 208/848/6 169/849/6
f 208/848/6 207/850/6 201/851/6
f 207/850/6 206/852/6 201/851/6
f 206/852/6 205/853/6 202/854/6
f 201/851/6 206/852/6 202/854/6
f 205/853/6 204/855/6 203/856/6
f 203/856/6 202/854/6 205/853/6
f 201/851/6 169/849/6 208/848/6
f 169/849/6 168/857/6 277/846/6
f 168/857/6 167/847/6 277/846/6
f 166/844/6 165/842/6 274/841/6
f 165/842/6 164/858/6 273/839/6
f 164/858/6 163/840/6 273/839/6
f 162/837/6 278/835/6 270/834/6
f 278/835/6 279/859/6 285/833/6
f 279/859/6 280/860/6 285/833/6
f 280/860/6 281/229/6 284/228/6
f 285/833/6 280/860/6 284/228/6
f 281/229/6 282/861/6 283/227/6
f 169/103/24 201/762/24 98/147/24
f 63/230/2 62/104/2 169/103/2
f 287/862/6 157/863/6 178/864/6
f 287/862/1 178/864/1 288/865/1
f 303/866/6 140/867/6 286/233/6
f 302/868/6 303/866/6 286/233/6
f 287/862/6 288/865/6 289/869/6
f 287/862/6 289/869/6 290/870/6
f 301/871/6 302/868/6 286/233/6
f 300/872/6 301/871/6 286/233/6
f 287/862/6 290/870/6 291/873/6
f 287/862/6 291/873/6 292/874/6
f 300/872/6 286/233/6 299/875/6
f 286/233/6 287/862/6 293/876/6
f 299/875/6 286/233/6 298/877/6
f 298/877/6 286/233/6 297/878/6
f 287/862/6 292/874/6 293/876/6
f 293/876/6 294/231/6 286/233/6
f 297/878/6 286/233/6 296/879/6
f 296/879/6 286/233/6 295/232/6
f 180/234/45 304/880/45 305/235/45
f 187/237/45 186/881/45 306/238/45
f 308/240/21 309/378/21 193/130/21
f 324/882/6 310/883/6 318/884/6
f 310/883/6 311/885/6 317/886/6
f 311/885/6 312/887/6 317/886/6
f 312/887/6 313/888/6 316/889/6
f 317/886/6 312/887/6 316/889/6
f 313/888/62 314/890/62 315/891/62
f 315/891/6 316/889/6 313/888/6
f 317/886/6 318/884/6 310/883/6
f 318/884/6 229/892/6 324/882/6
f 229/892/6 228/893/6 324/882/6
f 228/893/6 227/243/6 323/242/6
f 324/882/6 228/893/6 323/242/6
f 227/243/6 226/894/6 321/895/6
f 226/894/6 225/896/6 320/897/6
f 225/896/6 224/898/6 320/897/6
f 224/898/6 223/899/6 319/900/6
f 320/897/6 224/898/6 319/900/6
f 223/899/6 222/901/6 193/902/6
f 222/901/6 200/903/6 194/904/6
f 200/903/6 199/905/6 194/904/6
f 199/905/6 198/906/6 195/907/6
f 194/904/6 199/905/6 195/907/6
f 198/906/60 197/908/60 196/909/60
f 196/909/6 195/907/6 198/906/6
f 194/904/6 193/902/6 222/901/6
f 193/902/6 309/910/6 223/899/6
f 309/910/6 319/900/6 223/899/6
f 320/897/6 321/895/6 226/894/6
f 321/895/6 322/241/6 227/243/6
f 200/145/31 222/767/31 118/185/31
f 97/244/31 96/146/31 200/145/31
f 179/163/39 208/162/39 277/245/39
f 106/248/47 127/202/47 209/201/47
f 209/201/63 335/911/63 326/247/63
f 335/911/3 359/912/3 326/247/3
f 326/247/47 210/249/47 106/248/47
f 210/249/48 326/247/48 327/250/48
f 211/251/49 327/250/49 107/253/49
f 327/250/49 212/252/49 107/253/49
f 327/254/6 328/913/6 329/914/6
f 327/254/6 329/914/6 330/915/6
f 213/916/1 212/917/1 327/254/1
f 333/918/6 213/916/6 327/254/6
f 327/254/6 330/915/6 331/255/6
f 332/256/6 333/918/6 327/254/6
f 221/183/7 149/919/7 43/257/7
f 42/258/64 117/184/64 221/183/64
f 335/920/6 209/921/6 230/922/6
f 335/920/1 230/922/1 336/923/1
f 308/924/6 192/925/6 334/261/6
f 350/926/6 308/924/6 334/261/6
f 335/920/6 336/923/6 337/927/6
f 335/920/6 337/927/6 338/928/6
f 349/929/6 350/926/6 334/261/6
f 348/930/6 349/929/6 334/261/6
f 335/920/6 338/928/6 339/931/6
f 335/920/6 339/931/6 340/932/6
f 348/930/6 334/261/6 347/933/6
f 334/261/6 335/920/6 341/934/6
f 347/933/6 334/261/6 346/935/6
f 346/935/6 334/261/6 345/936/6
f 335/920/6 340/932/6 341/934/6
f 341/934/6 342/259/6 334/261/6
f 345/936/6 334/261/6 344/937/6
f 344/937/6 334/261/6 343/260/6
f 354/938/6 351/939/6 231/262/6
f 231/262/6 128/940/6 267/941/6
f 231/262/6 267/941/6 352/263/6
f 353/264/6 354/938/6 231/262/6
f 366/942/6 234/943/6 233/519/6
f 366/942/6 233/519/6 355/944/6
f 269/945/6 268/946/6 364/947/6
f 268/946/6 365/948/6 364/947/6
f 365/948/6 366/942/6 355/944/6
f 356/431/6 232/512/6 357/411/6
f 232/512/6 231/262/6 357/411/6
f 365/948/6 355/944/6 362/434/6
f 355/944/6 356/431/6 362/434/6
f 305/598/6 304/949/6 363/950/6
f 363/950/6 364/947/6 362/434/6
f 364/947/6 365/948/6 362/434/6
f 362/434/6 305/598/6 363/950/6
f 307/951/6 306/607/6 360/952/6
f 306/607/6 361/267/6 360/952/6
f 361/267/6 362/434/6 356/431/6
f 356/431/6 357/411/6 358/265/6
f 358/265/6 327/254/6 326/953/6
f 359/266/6 360/952/6 361/267/6
f 358/265/6 326/953/6 359/266/6
f 361/267/6 356/431/6 358/265/6
f 366/954/3 286/955/3 234/210/3
f 286/955/65 140/268/65 234/210/65
f 140/268/50 32/956/50 31/269/50
f 31/269/50 136/208/50 234/210/50
f 296/270/39 235/274/39 250/271/39
f 295/273/31 236/276/31 235/274/31
f 294/275/30 237/957/30 236/276/30
f 293/277/29 238/281/29 237/278/29
f 292/280/28 239/283/28 238/281/28
f 291/282/27 240/285/27 239/283/27
f 290/284/26 241/958/26 240/285/26
f 289/286/25 242/290/25 241/287/25
f 288/289/24 243/371/24 242/290/24
f 302/291/37 245/295/37 244/292/37
f 301/294/36 246/297/36 245/295/36
f 300/296/35 247/299/35 246/297/35
f 299/298/34 248/301/34 247/299/34
f 298/300/33 249/302/33 248/301/33
f 297/272/32 250/271/32 249/302/32
f 368/303/24 251/307/24 266/304/24
f 369/306/21 252/309/21 251/307/21
f 370/308/20 253/311/20 252/309/20
f 371/310/19 254/959/19 253/311/19
f 353/312/17 256/316/17 255/313/17
f 352/315/16 257/317/16 256/316/16
f 267/219/15 258/218/15 257/317/15
f 333/320/66 259/319/66 213/168/66
f 259/319/39 214/766/39 213/168/39
f 214/766/39 110/170/39 213/168/39
f 332/318/31 260/322/31 259/319/31
f 331/321/30 261/960/30 260/322/30
f 330/323/29 262/327/29 261/324/29
f 329/326/28 263/425/28 262/327/28
f 373/328/26 265/961/26 264/329/26
f 367/305/25 266/304/25 265/331/25
f 375/335/6 179/962/6 325/963/6
f 375/335/6 325/963/6 376/964/6
f 161/965/2 160/966/2 374/967/2
f 390/968/1 161/965/1 374/967/1
f 375/335/6 376/964/6 377/969/6
f 375/335/6 377/969/6 378/970/6
f 389/971/6 390/968/6 374/967/6
f 388/972/6 389/971/6 374/967/6
f 374/967/6 375/335/6 385/973/6
f 375/335/6 378/970/6 379/974/6
f 375/335/6 379/974/6 380/975/6
f 387/976/6 388/972/6 374/967/6
f 386/977/6 387/976/6 374/967/6
f 375/335/6 380/975/6 381/978/6
f 375/335/6 381/978/6 382/979/6
f 385/973/6 386/977/6 374/967/6
f 384/334/6 385/973/6 375/335/6
f 375/335/6 382/979/6 383/333/6
f 382/336/7 270/340/7 285/337/7
f 381/339/38 271/342/38 270/340/38
f 380/341/37 272/344/37 271/342/37
f 379/343/36 273/346/36 272/344/36
f 378/345/35 274/348/35 273/346/35
f 377/347/34 275/350/34 274/348/34
f 376/349/33 276/351/33 275/350/33
f 325/246/32 277/245/32 276/351/32
f 389/352/14 279/356/14 278/353/14
f 388/355/13 280/980/13 279/356/13
f 387/357/12 281/361/12 280/358/12
f 386/360/11 282/363/11 281/361/11
f 385/362/10 283/365/10 282/363/10
f 384/364/9 284/367/9 283/365/9
f 383/366/8 285/981/8 284/367/8
f 365/368/3 287/982/3 286/369/3
f 243/371/67 288/289/67 178/372/67
f 178/372/21 72/120/21 71/119/21
f 71/119/21 177/118/21 178/372/21
f 141/373/68 33/54/68 140/374/68
f 33/54/69 32/983/69 140/374/69
f 140/374/38 303/293/38 244/292/38
f 360/984/5 334/985/5 307/239/5
f 334/985/70 192/375/70 307/239/70
f 192/375/51 89/986/51 88/376/51
f 88/376/51 187/237/51 307/239/51
f 350/377/20 319/401/20 309/378/20
f 344/379/22 310/383/22 324/380/22
f 343/382/14 311/385/14 310/383/14
f 342/384/13 312/987/13 311/385/13
f 341/386/12 313/390/12 312/387/12
f 340/389/11 314/392/11 313/390/11
f 339/391/10 315/394/10 314/392/10
f 338/393/9 316/396/9 315/394/9
f 337/395/8 317/988/8 316/396/8
f 336/397/7 318/415/7 317/398/7
f 349/400/19 320/403/19 319/401/19
f 348/402/18 321/405/18 320/403/18
f 347/404/17 322/407/17 321/405/17
f 346/406/16 323/408/16 322/407/16
f 345/381/15 324/380/15 323/408/15
f 357/411/6 231/262/6 368/409/6
f 231/262/6 351/939/6 371/989/6
f 231/262/6 371/989/6 370/990/6
f 327/254/6 358/265/6 357/411/6
f 372/991/6 328/913/6 327/254/6
f 373/992/6 372/991/6 327/254/6
f 231/262/6 370/990/6 369/993/6
f 231/262/6 369/993/6 368/409/6
f 373/992/6 327/254/6 367/410/6
f 327/254/6 357/411/6 367/410/6
f 359/412/71 335/994/71 334/413/71
f 318/415/72 336/397/72 230/416/72
f 230/416/38 126/200/38 125/199/38
f 125/199/38 229/198/38 230/416/38
f 304/417/52 180/995/52 74/418/52
f 74/418/52 105/765/52 179/163/52
f 179/163/73 375/996/73 304/417/73
f 375/996/3 363/419/3 304/417/3
f 363/419/74 375/996/74 374/420/74
f 160/423/75 53/997/75 52/998/75
f 52/998/75 159/222/75 269/223/75
f 269/223/76 364/999/76 374/422/76
f 160/423/75 52/998/75 269/223/75
f 255/313/18 254/959/18 351/424/18
f 254/959/18 371/310/18 351/424/18
f 329/326/27 328/426/27 263/425/27
f 328/426/27 372/330/27 264/329/27
f 161/428/77 390/354/77 278/353/77
f 278/353/22 162/751/22 161/428/22
f 162/751/22 55/90/22 161/428/22
f 355/944/6 233/519/6 392/1000/6
f 233/519/6 391/518/6 392/1000/6
f 407/1001/6 232/512/6 406/1002/6
f 232/512/6 356/431/6 406/1002/6
f 355/944/6 392/1000/6 393/1003/6
f 355/944/6 393/1003/6 394/1004/6
f 405/1005/6 406/1002/6 356/431/6
f 404/1006/6 405/1005/6 356/431/6
f 356/431/6 355/944/6 399/429/6
f 355/944/6 394/1004/6 395/1007/6
f 355/944/6 395/1007/6 396/1008/6
f 403/1009/6 404/1006/6 356/431/6
f 402/1010/6 403/1009/6 356/431/6
f 355/944/6 396/1008/6 397/1011/6
f 355/944/6 397/1011/6 398/1012/6
f 401/1013/6 402/1010/6 356/431/6
f 400/430/6 401/1013/6 356/431/6
f 355/944/6 398/1012/6 399/429/6
f 361/267/6 306/607/6 409/1014/6
f 306/607/6 408/1015/6 409/1014/6
f 424/599/6 305/598/6 423/1016/6
f 305/598/6 362/434/6 423/1016/6
f 361/267/6 409/1014/6 410/1017/6
f 361/267/6 410/1017/6 411/1018/6
f 422/1019/6 423/1016/6 362/434/6
f 421/1020/6 422/1019/6 362/434/6
f 362/434/6 361/267/6 416/432/6
f 361/267/6 411/1018/6 412/1021/6
f 361/267/6 412/1021/6 413/1022/6
f 420/1023/6 421/1020/6 362/434/6
f 419/1024/6 420/1023/6 362/434/6
f 361/267/6 413/1022/6 414/1025/6
f 361/267/6 414/1025/6 415/1026/6
f 418/1027/6 419/1024/6 362/434/6
f 417/433/6 418/1027/6 362/434/6
f 361/267/6 415/1026/6 416/432/6
f 399/435/28 425/444/28 426/436/28
f 400/437/29 426/436/29 427/438/29
f 426/1028/62 425/1029/62 428/1030/62
f 428/1030/6 429/1031/6 426/1028/6
f 429/1031/6 430/442/6 427/441/6
f 426/1028/6 429/1031/6 427/441/6
f 430/442/6 431/1032/6 455/1033/6
f 431/1032/6 432/1034/6 454/1035/6
f 432/1034/6 433/1036/6 454/1035/6
f 433/1036/6 434/1037/6 453/1038/6
f 454/1035/6 433/1036/6 453/1038/6
f 434/1037/6 435/1039/6 451/1040/6
f 435/1039/6 436/1041/6 450/1042/6
f 436/1041/6 437/1043/6 450/1042/6
f 437/1043/6 438/1044/6 449/1045/6
f 450/1042/6 437/1043/6 449/1045/6
f 438/1044/6 439/1046/6 447/1047/6
f 439/1046/6 440/1048/6 446/1049/6
f 440/1048/6 441/1050/6 446/1049/6
f 441/1050/6 442/1051/6 445/1052/6
f 446/1049/6 441/1050/6 445/1052/6
f 442/1051/6 443/1053/6 444/1054/6
f 444/1054/6 445/1052/6 442/1051/6
f 446/1049/6 447/1047/6 439/1046/6
f 447/1047/6 448/1055/6 438/1044/6
f 448/1055/6 449/1045/6 438/1044/6
f 450/1042/6 451/1040/6 435/1039/6
f 451/1040/6 452/1056/6 434/1037/6
f 452/1056/6 453/1038/6 434/1037/6
f 454/1035/6 455/1033/6 431/1032/6
f 455/1033/6 456/440/6 430/442/6
f 398/443/27 428/509/27 425/444/27
f 401/445/30 427/1057/30 456/446/30
f 402/447/31 456/446/31 455/448/31
f 403/449/39 455/448/39 454/450/39
f 404/451/32 454/450/32 453/452/32
f 405/453/33 453/452/33 452/454/33
f 451/457/34 457/1058/34 407/456/34
f 407/456/34 406/455/34 452/454/34
f 450/459/35 133/460/35 458/458/35
f 133/460/35 132/1059/35 458/458/35
f 458/458/78 457/1058/78 451/457/78
f 133/460/36 450/459/36 449/461/36
f 134/462/37 449/461/37 18/465/37
f 449/461/37 448/463/37 18/465/37
f 19/464/38 448/463/38 447/466/38
f 20/467/7 447/466/7 446/468/7
f 21/470/8 446/1060/8 445/471/8
f 22/472/9 445/471/9 444/473/9
f 23/474/10 444/473/10 443/475/10
f 24/476/11 443/475/11 442/477/11
f 25/478/12 442/477/12 441/479/12
f 26/481/13 441/1061/13 440/482/13
f 27/483/14 440/482/14 439/484/14
f 28/485/22 439/484/22 438/486/22
f 29/487/15 438/486/15 30/490/15
f 438/486/15 437/488/15 30/490/15
f 137/489/16 437/488/16 436/491/16
f 459/494/17 139/517/17 138/492/17
f 138/492/17 436/491/17 459/494/17
f 434/496/18 392/497/18 391/495/18
f 391/495/18 459/494/18 435/493/18
f 392/497/19 434/496/19 433/498/19
f 393/499/20 433/498/20 432/500/20
f 394/501/21 432/500/21 431/502/21
f 395/503/24 431/502/24 430/504/24
f 396/505/25 430/504/25 429/506/25
f 397/508/26 429/1062/26 428/509/26
f 232/512/6 407/1001/6 457/1063/6
f 457/1063/6 458/510/6 232/512/6
f 131/513/4 460/1064/4 458/514/4
f 233/516/54 135/1065/54 139/517/54
f 131/521/55 130/1066/55 232/522/55
f 415/524/10 461/533/10 462/525/10
f 416/526/11 462/525/11 463/527/11
f 463/1067/6 462/1068/6 461/1069/6
f 461/1069/6 464/1070/6 463/1067/6
f 464/1070/6 465/531/6 492/530/6
f 463/1067/6 464/1070/6 492/530/6
f 465/531/6 466/1071/6 490/1072/6
f 466/1071/6 467/1073/6 489/1074/6
f 467/1073/6 468/1075/6 489/1074/6
f 468/1075/6 469/1076/6 488/1077/6
f 489/1074/6 468/1075/6 488/1077/6
f 469/1076/6 470/1078/6 486/1079/6
f 470/1078/6 471/1080/6 485/1081/6
f 471/1080/6 472/1082/6 485/1081/6
f 472/1082/6 473/1083/6 484/1084/6
f 485/1081/6 472/1082/6 484/1084/6
f 473/1083/6 474/1085/6 482/1086/6
f 474/1085/6 475/1087/6 481/1088/6
f 475/1087/6 476/1089/6 481/1088/6
f 476/1089/6 477/1090/6 480/1091/6
f 481/1088/6 476/1089/6 480/1091/6
f 477/1090/6 478/1092/6 479/1093/6
f 479/1093/6 480/1091/6 477/1090/6
f 481/1088/6 482/1086/6 474/1085/6
f 482/1086/6 483/1094/6 473/1083/6
f 483/1094/6 484/1084/6 473/1083/6
f 485/1081/6 486/1079/6 470/1078/6
f 486/1079/6 487/1095/6 469/1076/6
f 487/1095/6 488/1077/6 469/1076/6
f 489/1074/6 490/1072/6 466/1071/6
f 490/1072/6 491/529/6 465/531/6
f 414/532/9 464/597/9 461/533/9
f 417/528/12 463/527/12 492/534/12
f 418/536/13 492/1096/13 491/537/13
f 419/538/14 491/537/14 490/539/14
f 420/540/22 490/539/22 489/541/22
f 421/542/15 489/541/15 488/543/15
f 422/544/16 488/543/16 487/545/16
f 486/547/5 183/549/5 493/603/5
f 183/549/5 182/601/5 493/603/5
f 493/603/17 424/548/17 486/547/17
f 424/548/17 423/546/17 487/545/17
f 183/549/18 486/547/18 485/550/18
f 184/551/19 485/550/19 484/552/19
f 484/552/20 483/1097/20 75/554/20
f 483/1097/20 76/555/20 75/554/20
f 76/555/21 483/1097/21 482/556/21
f 77/557/24 482/556/24 481/558/24
f 78/559/25 481/558/25 480/560/25
f 79/562/26 480/1098/26 479/563/26
f 80/564/27 479/563/27 478/565/27
f 81/566/28 478/565/28 477/567/28
f 82/568/29 477/567/29 476/569/29
f 83/571/30 476/1099/30 475/572/30
f 84/573/31 475/572/31 474/574/31
f 85/575/39 474/574/39 473/576/39
f 473/576/32 472/1100/32 87/578/32
f 472/1100/32 188/579/32 87/578/32
f 188/579/33 472/1100/33 471/580/33
f 495/584/34 190/1101/34 189/581/34
f 189/581/34 471/580/34 495/584/34
f 471/580/34 470/582/34 495/584/34
f 469/586/35 409/587/35 408/585/35
f 408/585/35 494/583/35 470/582/35
f 409/587/36 469/586/36 468/588/36
f 410/589/37 468/588/37 467/590/37
f 411/591/38 467/590/38 466/592/38
f 412/593/7 466/592/7 465/594/7
f 413/596/8 465/1102/8 464/597/8
f 182/601/79 181/1103/79 305/602/79
f 190/604/2 495/1104/2 496/605/2
f 494/609/6 408/1015/6 306/607/6
f 306/607/6 496/1105/6 495/608/6
f 306/610/80 186/1106/80 191/611/80
f 499/613/5 500/1107/5 498/614/5
f 503/616/2 504/1108/2 500/617/2
f 501/619/3 502/1109/3 504/620/3
f 497/622/4 498/1110/4 502/623/4
f 497/625/6 501/1111/6 503/626/6
f 502/628/1 498/1112/1 500/629/1
